layer at (0,0) size 800x600 clip at (0,0) size 785x600 scrollHeight 828
  LayoutView at (0,0) size 800x600
layer at (0,0) size 785x828 backgroundClip at (0,0) size 785x600 clip at (0,0) size 785x600 outlineClip at (0,0) size 785x600
  LayoutBlockFlow {HTML} at (0,0) size 785x828
    LayoutBlockFlow {BODY} at (8,8) size 769x584
      LayoutBlockFlow (floating) {DIV} at (0,0) size 673x820 [border: (10px solid #0000FF)]
        LayoutImage (floating) {IMG} at (10,10) size 300x300 [bgcolor=#008000]
        LayoutImage {IMG} at (-140,310) size 500x500 [bgcolor=#800080]
