layer at (0,0) size 800x600
  LayoutView at (0,0) size 800x600
layer at (0,0) size 800x600
  LayoutBlockFlow {HTML} at (0,0) size 800x600
    LayoutBlockFlow {BODY} at (8,8) size 784x584
      LayoutBlockFlow {DIV} at (0,0) size 784x6 [border: (3px solid #FFFFFF)]
      LayoutBlockFlow (anonymous) at (0,6) size 784x18
        LayoutMenuList {SELECT} at (0,0) size 36x18 [bgcolor=#F8F8F8] [border: (1px solid #008000)]
          LayoutBlockFlow (anonymous) at (1,1) size 34x16
            LayoutBR (anonymous) at (8,1) size 0x13 [bgcolor=#F8F8F8]
        LayoutText {#text} at (0,0) size 0x0
