{
  "bounds": [800, 600],
  "children": [
    {
      "bounds": [800, 600],
      "contentsOpaque": true,
      "drawsContent": true,
      "repaintRects": [
        [10, 62, 319, 258],
        [10, 62, 319, 258],
        [10, 62, 319, 258]
      ],
      "paintInvalidationClients": [
        "InlineTextBox 'FAIL'",
        "LayoutSVGInlineText #text",
        "InlineFlowBox",
        "LayoutSVGTSpan tspan id='remove'",
        "RootInlineBox",
        "InlineFlowBox",
        "InlineTextBox 'PASS'",
        "InlineTextBox ''",
        "InlineTextBox ''",
        "InlineFlowBox",
        "InlineTextBox 'PASS'",
        "LayoutSVGText text id='text'"
      ]
    }
  ]
}

