layer at (0,0) size 480x360
  LayoutView at (0,0) size 480x360
layer at (0,0) size 480x360
  LayoutSVGRoot {svg} at (0,0) size 480x360
    LayoutSVGText {text} at (10,304) size 264x45 contains 1 chunk(s)
      LayoutSVGInlineText {#text} at (0,0) size 264x45
        chunk 1 text run 1 at (10.00,340.00) startOffset 0 endOffset 16 width 263.34: "$Revision: 1.7 $"
    LayoutSVGRect {rect} at (0,0) size 480x360 [stroke={[type=SOLID] [color=#000000]}] [x=1.00] [y=1.00] [width=478.00] [height=358.00]
    LayoutSVGText {text} at (224,12) size 32x22 contains 1 chunk(s)
      LayoutSVGInlineText {#text} at (0,0) size 32x22
        chunk 1 (middle anchor) text run 1 at (224.44,30.00) startOffset 0 endOffset 3 width 31.11: "min"
    LayoutSVGContainer {g} at (76,62) size 281x216 [transform={m=((1.00,0.00)(0.00,1.00)) t=(100.00,50.00)}]
      LayoutSVGContainer {g} at (76,82) size 144x196 [transform={m=((1.00,0.00)(0.00,1.00)) t=(120.00,45.00)}]
        LayoutSVGText {text} at (-84,-13) size 84x16 contains 1 chunk(s)
          LayoutSVGInlineText {#text} at (0,0) size 84x16
            chunk 1 (end anchor) text run 1 at (-84.00,0.00) startOffset 0 endOffset 14 width 84.00: "no min / media"
        LayoutSVGText {text} at (-61,12) size 61x16 contains 1 chunk(s)
          LayoutSVGInlineText {#text} at (0,0) size 61x16
            chunk 1 (end anchor) text run 1 at (-61.00,25.00) startOffset 0 endOffset 11 width 61.00: "invalid min"
        LayoutSVGText {text} at (-93,37) size 93x16 contains 1 chunk(s)
          LayoutSVGInlineText {#text} at (0,0) size 93x16
            chunk 1 (end anchor) text run 1 at (-93.00,50.00) startOffset 0 endOffset 16 width 93.00: "min < active dur"
        LayoutSVGText {text} at (-93,62) size 93x16 contains 1 chunk(s)
          LayoutSVGInlineText {#text} at (0,0) size 93x16
            chunk 1 (end anchor) text run 1 at (-93.00,75.00) startOffset 0 endOffset 16 width 93.00: "min > active dur"
        LayoutSVGText {text} at (-94,87) size 94x16 contains 1 chunk(s)
          LayoutSVGInlineText {#text} at (0,0) size 94x16
            chunk 1 (end anchor) text run 1 at (-94.00,100.00) startOffset 0 endOffset 16 width 94.00: "min < repeat dur"
        LayoutSVGText {text} at (-144,112) size 144x16 contains 1 chunk(s)
          LayoutSVGInlineText {#text} at (0,0) size 144x16
            chunk 1 (end anchor) text run 1 at (-144.00,125.00) startOffset 0 endOffset 24 width 144.00: "min > repeat dur, remove"
        LayoutSVGText {text} at (-136,167) size 136x16 contains 1 chunk(s)
          LayoutSVGInlineText {#text} at (0,0) size 136x16
            chunk 1 (end anchor) text run 1 at (-136.00,180.00) startOffset 0 endOffset 24 width 136.00: "min > repeat dur, freeze"
      LayoutSVGContainer {g} at (234,62) size 112x196 [transform={m=((1.00,0.00)(0.00,1.00)) t=(150.00,25.00)}]
        LayoutSVGText {text} at (-13,-13) size 26x16 contains 1 chunk(s)
          LayoutSVGInlineText {#text} at (0,0) size 25x16
            chunk 1 (middle anchor) text run 1 at (-12.50,0.00) startOffset 0 endOffset 4 width 25.00: "> 5s"
        LayoutSVGText {text} at (64,-13) size 32x16 contains 1 chunk(s)
          LayoutSVGInlineText {#text} at (0,0) size 31x16
            chunk 1 (middle anchor) text run 1 at (64.50,0.00) startOffset 0 endOffset 5 width 31.00: "0s-5s"
        LayoutSVGContainer {g} at (234,242) size 109x16 [transform={m=((1.00,0.00)(0.00,1.00)) t=(0.00,180.00)}]
          LayoutSVGText {text} at (-16,-13) size 32x16 contains 1 chunk(s)
            LayoutSVGInlineText {#text} at (0,0) size 31x16
              chunk 1 (middle anchor) text run 1 at (-15.50,0.00) startOffset 0 endOffset 5 width 31.00: "never"
          LayoutSVGText {text} at (67,-13) size 26x16 contains 1 chunk(s)
            LayoutSVGInlineText {#text} at (0,0) size 25x16
              chunk 1 (middle anchor) text run 1 at (67.50,0.00) startOffset 0 endOffset 4 width 25.00: "> 0s"
      LayoutSVGContainer {g} at (243,83) size 114x194 [transform={m=((1.00,0.00)(0.00,1.00)) t=(150.00,40.00)}]
        LayoutSVGHiddenContainer {defs} at (0,0) size 0x0
          LayoutSVGRect {rect} at (243,83) size 14x14 [stroke={[type=SOLID] [color=#000000]}] [fill={[type=SOLID] [color=#CCCCCC]}] [x=-6.00] [y=-6.00] [width=12.00] [height=12.00]
        LayoutSVGContainer {g} at (243,83) size 114x14
          LayoutSVGContainer {use} at (243,83) size 14x14
            LayoutSVGRect {rect} at (243,83) size 14x14 [stroke={[type=SOLID] [color=#000000]}] [fill={[type=SOLID] [color=#CCCCCC]}] [x=-6.00] [y=-6.00] [width=12.00] [height=12.00]
          LayoutSVGContainer {use} at (323,83) size 14x14 [transform={m=((1.00,0.00)(0.00,1.00)) t=(80.00,0.00)}]
            LayoutSVGRect {rect} at (323,83) size 14x14 [stroke={[type=SOLID] [color=#000000]}] [fill={[type=SOLID] [color=#CCCCCC]}] [x=-6.00] [y=-6.00] [width=12.00] [height=12.00]
          LayoutSVGRect {rect} at (323,83) size 14x14 [stroke={[type=SOLID] [color=#000000]}] [fill={[type=SOLID] [color=#CC0066]}] [x=74.00] [y=-6.00] [width=12.00] [height=12.00]
          LayoutSVGContainer {g} at (263,83) size 94x14 [transform={m=((1.00,0.00)(0.00,1.00)) t=(20.00,0.00)}]
            LayoutSVGContainer {use} at (263,83) size 14x14
              LayoutSVGRect {rect} at (263,83) size 14x14 [stroke={[type=SOLID] [color=#000000]}] [fill={[type=SOLID] [color=#CCCCCC]}] [x=-6.00] [y=-6.00] [width=12.00] [height=12.00]
            LayoutSVGContainer {use} at (343,83) size 14x14 [transform={m=((1.00,0.00)(0.00,1.00)) t=(80.00,0.00)}]
              LayoutSVGRect {rect} at (343,83) size 14x14 [stroke={[type=SOLID] [color=#000000]}] [fill={[type=SOLID] [color=#CCCCCC]}] [x=-6.00] [y=-6.00] [width=12.00] [height=12.00]
            LayoutSVGRect {rect} at (343,83) size 14x14 [stroke={[type=SOLID] [color=#000000]}] [fill={[type=SOLID] [color=#CC0066]}] [x=74.00] [y=-6.00] [width=12.00] [height=12.00]
        LayoutSVGContainer {g} at (243,108) size 94x14 [transform={m=((1.00,0.00)(0.00,1.00)) t=(0.00,25.00)}]
          LayoutSVGContainer {use} at (243,108) size 14x14
            LayoutSVGRect {rect} at (243,108) size 14x14 [stroke={[type=SOLID] [color=#000000]}] [fill={[type=SOLID] [color=#CCCCCC]}] [x=-6.00] [y=-6.00] [width=12.00] [height=12.00]
          LayoutSVGContainer {use} at (323,108) size 14x14 [transform={m=((1.00,0.00)(0.00,1.00)) t=(80.00,0.00)}]
            LayoutSVGRect {rect} at (323,108) size 14x14 [stroke={[type=SOLID] [color=#000000]}] [fill={[type=SOLID] [color=#CCCCCC]}] [x=-6.00] [y=-6.00] [width=12.00] [height=12.00]
          LayoutSVGRect {rect} at (323,108) size 14x14 [stroke={[type=SOLID] [color=#000000]}] [fill={[type=SOLID] [color=#CC0066]}] [x=74.00] [y=-6.00] [width=12.00] [height=12.00]
        LayoutSVGContainer {g} at (243,133) size 94x14 [transform={m=((1.00,0.00)(0.00,1.00)) t=(0.00,50.00)}]
          LayoutSVGContainer {use} at (243,133) size 14x14
            LayoutSVGRect {rect} at (243,133) size 14x14 [stroke={[type=SOLID] [color=#000000]}] [fill={[type=SOLID] [color=#CCCCCC]}] [x=-6.00] [y=-6.00] [width=12.00] [height=12.00]
          LayoutSVGContainer {use} at (323,133) size 14x14 [transform={m=((1.00,0.00)(0.00,1.00)) t=(80.00,0.00)}]
            LayoutSVGRect {rect} at (323,133) size 14x14 [stroke={[type=SOLID] [color=#000000]}] [fill={[type=SOLID] [color=#CCCCCC]}] [x=-6.00] [y=-6.00] [width=12.00] [height=12.00]
          LayoutSVGRect {rect} at (323,133) size 14x14 [stroke={[type=SOLID] [color=#000000]}] [fill={[type=SOLID] [color=#CC0066]}] [x=74.00] [y=-6.00] [width=12.00] [height=12.00]
        LayoutSVGContainer {g} at (243,158) size 94x14 [transform={m=((1.00,0.00)(0.00,1.00)) t=(0.00,75.00)}]
          LayoutSVGContainer {use} at (243,158) size 14x14
            LayoutSVGRect {rect} at (243,158) size 14x14 [stroke={[type=SOLID] [color=#000000]}] [fill={[type=SOLID] [color=#CCCCCC]}] [x=-6.00] [y=-6.00] [width=12.00] [height=12.00]
          LayoutSVGContainer {use} at (323,158) size 14x14 [transform={m=((1.00,0.00)(0.00,1.00)) t=(80.00,0.00)}]
            LayoutSVGRect {rect} at (323,158) size 14x14 [stroke={[type=SOLID] [color=#000000]}] [fill={[type=SOLID] [color=#CCCCCC]}] [x=-6.00] [y=-6.00] [width=12.00] [height=12.00]
          LayoutSVGRect {rect} at (323,158) size 14x14 [stroke={[type=SOLID] [color=#000000]}] [fill={[type=SOLID] [color=#CC0066]}] [x=74.00] [y=-6.00] [width=12.00] [height=12.00]
        LayoutSVGContainer {g} at (243,183) size 94x14 [transform={m=((1.00,0.00)(0.00,1.00)) t=(0.00,100.00)}]
          LayoutSVGContainer {use} at (243,183) size 14x14
            LayoutSVGRect {rect} at (243,183) size 14x14 [stroke={[type=SOLID] [color=#000000]}] [fill={[type=SOLID] [color=#CCCCCC]}] [x=-6.00] [y=-6.00] [width=12.00] [height=12.00]
          LayoutSVGContainer {use} at (323,183) size 14x14 [transform={m=((1.00,0.00)(0.00,1.00)) t=(80.00,0.00)}]
            LayoutSVGRect {rect} at (323,183) size 14x14 [stroke={[type=SOLID] [color=#000000]}] [fill={[type=SOLID] [color=#CCCCCC]}] [x=-6.00] [y=-6.00] [width=12.00] [height=12.00]
          LayoutSVGRect {rect} at (323,183) size 14x14 [stroke={[type=SOLID] [color=#000000]}] [fill={[type=SOLID] [color=#CC0066]}] [x=74.00] [y=-6.00] [width=12.00] [height=12.00]
        LayoutSVGContainer {g} at (243,208) size 94x14 [transform={m=((1.00,0.00)(0.00,1.00)) t=(0.00,125.00)}]
          LayoutSVGContainer {use} at (243,208) size 14x14
            LayoutSVGRect {rect} at (243,208) size 14x14 [stroke={[type=SOLID] [color=#000000]}] [fill={[type=SOLID] [color=#CCCCCC]}] [x=-6.00] [y=-6.00] [width=12.00] [height=12.00]
          LayoutSVGContainer {use} at (323,208) size 14x14 [transform={m=((1.00,0.00)(0.00,1.00)) t=(80.00,0.00)}]
            LayoutSVGRect {rect} at (323,208) size 14x14 [stroke={[type=SOLID] [color=#000000]}] [fill={[type=SOLID] [color=#CCCCCC]}] [x=-6.00] [y=-6.00] [width=12.00] [height=12.00]
          LayoutSVGRect {rect} at (323,208) size 14x14 [stroke={[type=SOLID] [color=#000000]}] [fill={[type=SOLID] [color=#CC0066]}] [x=74.00] [y=-6.00] [width=12.00] [height=12.00]
        LayoutSVGContainer {g} at (243,263) size 94x14 [transform={m=((1.00,0.00)(0.00,1.00)) t=(0.00,180.00)}]
          LayoutSVGContainer {use} at (243,263) size 14x14
            LayoutSVGRect {rect} at (243,263) size 14x14 [stroke={[type=SOLID] [color=#000000]}] [fill={[type=SOLID] [color=#CCCCCC]}] [x=-6.00] [y=-6.00] [width=12.00] [height=12.00]
          LayoutSVGContainer {use} at (323,263) size 14x14 [transform={m=((1.00,0.00)(0.00,1.00)) t=(80.00,0.00)}]
            LayoutSVGRect {rect} at (323,263) size 14x14 [stroke={[type=SOLID] [color=#000000]}] [fill={[type=SOLID] [color=#CCCCCC]}] [x=-6.00] [y=-6.00] [width=12.00] [height=12.00]
          LayoutSVGRect {rect} at (323,263) size 14x14 [stroke={[type=SOLID] [color=#000000]}] [fill={[type=SOLID] [color=#CC0066]}] [x=74.00] [y=-6.00] [width=12.00] [height=12.00]
