layer at (0,0) size 480x360
  LayoutView at (0,0) size 480x360
layer at (0,0) size 480x360
  LayoutSVGRoot {svg} at (0,0) size 480x360
    LayoutSVGContainer {g} at (20,2) size 450x310
      LayoutSVGContainer {g} at (20,3) size 213x95 [transform={m=((1.00,0.00)(0.00,1.00)) t=(10.00,10.00)}]
        LayoutSVGText {text} at (10,4) size 41x20 contains 1 chunk(s)
          LayoutSVGInlineText {#text} at (0,0) size 41x20
            chunk 1 text run 1 at (10.00,20.00) startOffset 0 endOffset 4 width 40.04: "open"
        LayoutSVGText {text} at (10,22) size 85x20 contains 1 chunk(s)
          LayoutSVGInlineText {#text} at (0,0) size 85x20
            chunk 1 text run 1 at (10.00,38.00) startOffset 0 endOffset 10 width 84.57: "join=round"
        LayoutSVGText {text} at (10,40) size 70x20 contains 1 chunk(s)
          LayoutSVGInlineText {#text} at (0,0) size 70x20
            chunk 1 text run 1 at (10.00,56.00) startOffset 0 endOffset 8 width 69.56: "cap=butt"
        LayoutSVGText {text} at (10,58) size 36x20 contains 1 chunk(s)
          LayoutSVGInlineText {#text} at (0,0) size 36x20
            chunk 1 text run 1 at (10.00,74.00) startOffset 0 endOffset 4 width 35.01: "M, L"
        LayoutSVGContainer {g} at (115,3) size 118x95 [transform={m=((1.00,0.00)(0.00,1.00)) t=(115.00,0.00)}]
          LayoutSVGPath {path} at (115,3) size 118x95 [stroke={[type=SOLID] [color=#FF0000] [stroke width=15.00] [line join=ROUND]}] [fill={[type=SOLID] [color=#008000]}] [data="M 100 0 L 100 80 L 0 40 L 100 0"]
      LayoutSVGContainer {g} at (20,105) size 215x97 [transform={m=((1.00,0.00)(0.00,1.00)) t=(10.00,115.00)}]
        LayoutSVGText {text} at (10,4) size 41x20 contains 1 chunk(s)
          LayoutSVGInlineText {#text} at (0,0) size 41x20
            chunk 1 text run 1 at (10.00,20.00) startOffset 0 endOffset 4 width 40.04: "open"
        LayoutSVGText {text} at (10,22) size 82x20 contains 1 chunk(s)
          LayoutSVGInlineText {#text} at (0,0) size 82x20
            chunk 1 text run 1 at (10.00,38.00) startOffset 0 endOffset 10 width 81.56: "join=bevel"
        LayoutSVGText {text} at (10,40) size 86x20 contains 1 chunk(s)
          LayoutSVGInlineText {#text} at (0,0) size 86x20
            chunk 1 text run 1 at (10.00,56.00) startOffset 0 endOffset 9 width 85.57: "cap=round"
        LayoutSVGText {text} at (10,58) size 29x20 contains 1 chunk(s)
          LayoutSVGInlineText {#text} at (0,0) size 29x20
            chunk 1 text run 1 at (10.00,74.00) startOffset 0 endOffset 4 width 29.00: "m, l"
        LayoutSVGContainer {g} at (122,105) size 113x97 [transform={m=((1.00,0.00)(0.00,1.00)) t=(115.00,0.00)}]
          LayoutSVGPath {path} at (122,105) size 113x97 [stroke={[type=SOLID] [color=#FF0000] [stroke width=15.00] [line cap=ROUND] [line join=BEVEL]}] [fill={[type=SOLID] [color=#008000]}] [data="M 100 0 L 100 80 L 0 40 L 100 0"]
      LayoutSVGContainer {g} at (20,210) size 215x102 [transform={m=((1.00,0.00)(0.00,1.00)) t=(10.00,220.00)}]
        LayoutSVGText {text} at (10,4) size 41x20 contains 1 chunk(s)
          LayoutSVGInlineText {#text} at (0,0) size 41x20
            chunk 1 text run 1 at (10.00,20.00) startOffset 0 endOffset 4 width 40.04: "open"
        LayoutSVGText {text} at (10,22) size 79x20 contains 1 chunk(s)
          LayoutSVGInlineText {#text} at (0,0) size 79x20
            chunk 1 text run 1 at (10.00,38.00) startOffset 0 endOffset 10 width 78.53: "join=miter"
        LayoutSVGText {text} at (10,40) size 95x20 contains 1 chunk(s)
          LayoutSVGInlineText {#text} at (0,0) size 95x20
            chunk 1 text run 1 at (10.00,56.00) startOffset 0 endOffset 10 width 94.57: "cap=square"
        LayoutSVGText {text} at (10,58) size 36x20 contains 1 chunk(s)
          LayoutSVGInlineText {#text} at (0,0) size 36x20
            chunk 1 text run 1 at (10.00,74.00) startOffset 0 endOffset 4 width 35.01: "M, L"
        LayoutSVGContainer {g} at (104,210) size 131x102 [transform={m=((1.00,0.00)(0.00,1.00)) t=(115.00,0.00)}]
          LayoutSVGPath {path} at (104,210) size 131x102 [stroke={[type=SOLID] [color=#FF0000] [stroke width=15.00] [line cap=SQUARE]}] [fill={[type=SOLID] [color=#008000]}] [data="M 100 0 L 100 80 L 0 40 L 100 0"]
      LayoutSVGContainer {g} at (242,2) size 218x98 [transform={m=((1.00,0.00)(0.00,1.00)) t=(250.00,10.00)}]
        LayoutSVGText {text} at (125,4) size 53x20 contains 1 chunk(s)
          LayoutSVGInlineText {#text} at (0,0) size 53x20
            chunk 1 text run 1 at (125.00,20.00) startOffset 0 endOffset 6 width 52.03: "closed"
        LayoutSVGText {text} at (125,22) size 85x20 contains 1 chunk(s)
          LayoutSVGInlineText {#text} at (0,0) size 85x20
            chunk 1 text run 1 at (125.00,38.00) startOffset 0 endOffset 10 width 84.57: "join=round"
        LayoutSVGText {text} at (125,40) size 70x20 contains 1 chunk(s)
          LayoutSVGInlineText {#text} at (0,0) size 70x20
            chunk 1 text run 1 at (125.00,56.00) startOffset 0 endOffset 8 width 69.56: "cap=butt"
        LayoutSVGText {text} at (125,58) size 57x20 contains 1 chunk(s)
          LayoutSVGInlineText {#text} at (0,0) size 57x20
            chunk 1 text run 1 at (125.00,74.00) startOffset 0 endOffset 7 width 56.00: "M, L, Z"
        LayoutSVGContainer {g} at (242,2) size 118x98
          LayoutSVGPath {path} at (242,2) size 118x98 [stroke={[type=SOLID] [color=#FF0000] [stroke width=15.00] [line join=ROUND]}] [fill={[type=SOLID] [color=#008000]}] [data="M 0 0 L 100 40 L 0 80 Z"]
      LayoutSVGContainer {g} at (242,108) size 219x94 [transform={m=((1.00,0.00)(0.00,1.00)) t=(250.00,115.00)}]
        LayoutSVGText {text} at (125,4) size 53x20 contains 1 chunk(s)
          LayoutSVGInlineText {#text} at (0,0) size 53x20
            chunk 1 text run 1 at (125.00,20.00) startOffset 0 endOffset 6 width 52.03: "closed"
        LayoutSVGText {text} at (125,22) size 82x20 contains 1 chunk(s)
          LayoutSVGInlineText {#text} at (0,0) size 82x20
            chunk 1 text run 1 at (125.00,38.00) startOffset 0 endOffset 10 width 81.56: "join=bevel"
        LayoutSVGText {text} at (125,40) size 86x20 contains 1 chunk(s)
          LayoutSVGInlineText {#text} at (0,0) size 86x20
            chunk 1 text run 1 at (125.00,56.00) startOffset 0 endOffset 9 width 85.57: "cap=round"
        LayoutSVGText {text} at (125,58) size 48x20 contains 1 chunk(s)
          LayoutSVGInlineText {#text} at (0,0) size 48x20
            chunk 1 text run 1 at (125.00,74.00) startOffset 0 endOffset 7 width 48.00: "m, l, z"
        LayoutSVGContainer {g} at (242,108) size 111x94
          LayoutSVGPath {path} at (242,108) size 111x94 [stroke={[type=SOLID] [color=#FF0000] [stroke width=15.00] [line cap=ROUND] [line join=BEVEL]}] [fill={[type=SOLID] [color=#008000]}] [data="M 0 0 L 100 40 L 0 80 Z"]
      LayoutSVGContainer {g} at (242,208) size 228x104 [transform={m=((1.00,0.00)(0.00,1.00)) t=(250.00,220.00)}]
        LayoutSVGText {text} at (125,4) size 53x20 contains 1 chunk(s)
          LayoutSVGInlineText {#text} at (0,0) size 53x20
            chunk 1 text run 1 at (125.00,20.00) startOffset 0 endOffset 6 width 52.03: "closed"
        LayoutSVGText {text} at (125,22) size 79x20 contains 1 chunk(s)
          LayoutSVGInlineText {#text} at (0,0) size 79x20
            chunk 1 text run 1 at (125.00,38.00) startOffset 0 endOffset 10 width 78.53: "join=miter"
        LayoutSVGText {text} at (125,40) size 95x20 contains 1 chunk(s)
          LayoutSVGInlineText {#text} at (0,0) size 95x20
            chunk 1 text run 1 at (125.00,56.00) startOffset 0 endOffset 10 width 94.57: "cap=square"
        LayoutSVGText {text} at (125,58) size 57x20 contains 1 chunk(s)
          LayoutSVGInlineText {#text} at (0,0) size 57x20
            chunk 1 text run 1 at (125.00,74.00) startOffset 0 endOffset 7 width 56.00: "M, L, Z"
        LayoutSVGContainer {g} at (242,208) size 129x104
          LayoutSVGPath {path} at (242,208) size 129x104 [stroke={[type=SOLID] [color=#FF0000] [stroke width=15.00] [line cap=SQUARE]}] [fill={[type=SOLID] [color=#008000]}] [data="M 0 0 L 100 40 L 0 80 Z"]
    LayoutSVGText {text} at (10,304) size 284x45 contains 1 chunk(s)
      LayoutSVGInlineText {#text} at (0,0) size 284x45
        chunk 1 text run 1 at (10.00,340.00) startOffset 0 endOffset 17 width 283.34: "$Revision: 1.13 $"
    LayoutSVGRect {rect} at (0,0) size 480x360 [stroke={[type=SOLID] [color=#000000]}] [x=1.00] [y=1.00] [width=478.00] [height=358.00]
