layer at (0,0) size 480x360
  LayoutView at (0,0) size 480x360
layer at (0,0) size 480x360
  LayoutSVGRoot {svg} at (0,0) size 480x360
    LayoutSVGContainer {g} at (0,0) size 419x292
      LayoutSVGHiddenContainer {defs} at (0,0) size 0x0
        LayoutSVGPath {path} at (198,13) size 221x99 [stroke={[type=SOLID] [color=#0000FF]}] [data="M 199 89.3 C 206.6 66.6 235.8 13.2 270 30.3 C 286.6 38.6 298.9 59.4 310 73.3 C 321.7 87.9 338.6 99 356 103.3 C 387.3 111.1 396.6 90.4 418 74.3"]
        LayoutSVGPath {path} at (33,69) size 220x99 [stroke={[type=SOLID] [color=#0000FF]}] [data="M 33.5 145.8 C 41 123 70.3 69.7 104.5 86.8 C 121 95 133 116 144.5 129.8 C 156.2 144.4 173 155.5 190.5 159.8 C 221.8 167.6 231 146.9 252.5 130.8"]
        LayoutSVGPath {path} at (113,231) size 300x4 [stroke={[type=SOLID] [color=#0000FF] [stroke width=4.00]}] [data="M 113 233 L 413 233"]
      LayoutSVGContainer {g} at (168,0) size 251x114
        LayoutSVGContainer {use} at (198,13) size 221x99
          LayoutSVGPath {path} at (198,13) size 221x99 [stroke={[type=SOLID] [color=#0000FF]}] [data="M 199 89.3 C 206.6 66.6 235.8 13.2 270 30.3 C 286.6 38.6 298.9 59.4 310 73.3 C 321.7 87.9 338.6 99 356 103.3 C 387.3 111.1 396.6 90.4 418 74.3"]
        LayoutSVGText {text} at (168,-7) size 206x121 contains 1 chunk(s)
          LayoutSVGTextPath {textPath} at (0,0) size 205x120
            LayoutSVGInlineText {#text} at (0,0) size 205x120
              chunk 1 text run 1 at (203.08,78.99) startOffset 0 endOffset 1 width 22.27: "T"
              chunk 1 text run 2 at (212.32,61.50) startOffset 1 endOffset 2 width 17.40: "e"
              chunk 1 text run 3 at (222.73,46.94) startOffset 2 endOffset 3 width 18.18: "x"
              chunk 1 text run 4 at (233.61,36.17) startOffset 3 endOffset 4 width 12.43: "t"
              chunk 1 text run 5 at (242.47,30.46) startOffset 4 endOffset 5 width 8.68: " "
              chunk 1 text run 6 at (255.95,26.99) startOffset 5 endOffset 6 width 19.41: "o"
              chunk 1 text run 7 at (274.98,33.23) startOffset 6 endOffset 7 width 21.27: "n"
              chunk 1 text run 8 at (286.21,43.02) startOffset 7 endOffset 8 width 8.68: " "
              chunk 1 text run 9 at (294.96,53.33) startOffset 8 endOffset 9 width 18.14: "a"
              chunk 1 text run 10 at (303.06,64.13) startOffset 9 endOffset 10 width 8.68: " "
              chunk 1 text run 11 at (311.92,75.61) startOffset 10 endOffset 11 width 20.57: "p"
              chunk 1 text run 12 at (326.07,88.81) startOffset 11 endOffset 12 width 18.14: "a"
              chunk 1 text run 13 at (339.05,96.91) startOffset 12 endOffset 13 width 12.43: "t"
              chunk 1 text run 14 at (354.60,102.94) startOffset 13 endOffset 14 width 20.95: "h"
          LayoutSVGInlineText {#text} at (0,0) size 0x0
      LayoutSVGContainer {g} at (0,50) size 292x161
        LayoutSVGContainer {use} at (33,69) size 220x99
          LayoutSVGPath {path} at (33,69) size 220x99 [stroke={[type=SOLID] [color=#0000FF]}] [data="M 33.5 145.8 C 41 123 70.3 69.7 104.5 86.8 C 121 95 133 116 144.5 129.8 C 156.2 144.4 173 155.5 190.5 159.8 C 221.8 167.6 231 146.9 252.5 130.8"]
        LayoutSVGText {text} at (-9,50) size 217x120 contains 1 chunk(s)
          LayoutSVGTextPath {textPath} at (0,0) size 216x120
            LayoutSVGTSpan {tspan} at (0,0) size 57x58
              LayoutSVGInlineText {#text} at (0,36) size 57x58
                chunk 1 text run 1 at (37.54,135.48) startOffset 0 endOffset 1 width 22.27: "T"
                chunk 1 text run 2 at (46.77,117.97) startOffset 1 endOffset 2 width 17.40: "e"
            LayoutSVGTSpan {tspan} at (0,0) size 44x42
              LayoutSVGInlineText {#text} at (34,24) size 44x41
                chunk 1 text run 1 at (57.18,103.42) startOffset 0 endOffset 1 width 18.18: "x"
            LayoutSVGInlineText {#text} at (50,0) size 166x120
              chunk 1 text run 1 at (68.07,92.65) startOffset 0 endOffset 1 width 12.43: "t"
              chunk 1 text run 2 at (76.93,86.96) startOffset 1 endOffset 2 width 8.68: " "
              chunk 1 text run 3 at (90.41,83.48) startOffset 2 endOffset 3 width 19.41: "o"
              chunk 1 text run 4 at (109.45,89.71) startOffset 3 endOffset 4 width 21.27: "n"
              chunk 1 text run 5 at (120.62,99.55) startOffset 4 endOffset 5 width 8.68: " "
              chunk 1 text run 6 at (129.32,109.91) startOffset 5 endOffset 6 width 18.14: "a"
              chunk 1 text run 7 at (137.43,120.71) startOffset 6 endOffset 7 width 8.68: " "
              chunk 1 text run 8 at (146.41,132.09) startOffset 7 endOffset 8 width 20.57: "p"
              chunk 1 text run 9 at (160.55,145.31) startOffset 8 endOffset 9 width 18.14: "a"
              chunk 1 text run 10 at (173.52,153.42) startOffset 9 endOffset 10 width 12.43: "t"
              chunk 1 text run 11 at (189.07,159.43) startOffset 10 endOffset 11 width 20.95: "h"
          LayoutSVGInlineText {#text} at (0,0) size 0x0
        LayoutSVGRect {rect} at (16,168) size 276x43 [stroke={[type=SOLID] [color=#000000]}] [x=17.00] [y=169.00] [width=274.00] [height=41.00]
        LayoutSVGText {text} at (19,167) size 224x22 contains 1 chunk(s)
          LayoutSVGInlineText {#text} at (0,0) size 224x22
            chunk 1 text run 1 at (19.00,185.00) startOffset 0 endOffset 25 width 223.33: "'tspan' subelement inside"
        LayoutSVGText {text} at (19,189) size 197x22 contains 1 chunk(s)
          LayoutSVGInlineText {#text} at (0,0) size 197x22
            chunk 1 text run 1 at (19.00,207.00) startOffset 0 endOffset 23 width 196.64: "the 'textPath' element."
      LayoutSVGContainer {g} at (113,211) size 300x81
        LayoutSVGContainer {use} at (113,231) size 300x4
          LayoutSVGPath {path} at (113,231) size 300x4 [stroke={[type=SOLID] [color=#0000FF] [stroke width=4.00]}] [data="M 113 233 L 413 233"]
        LayoutSVGText {text} at (211,211) size 183x27 contains 1 chunk(s)
          LayoutSVGTextPath {textPath} at (0,0) size 182x27
            LayoutSVGInlineText {#text} at (0,0) size 182x27
              chunk 1 text run 1 at (219.33,233.00) startOffset 0 endOffset 1 width 14.66: "T"
              chunk 1 text run 2 at (233.33,233.00) startOffset 1 endOffset 2 width 13.35: "h"
              chunk 1 text run 3 at (246.68,233.00) startOffset 2 endOffset 3 width 13.35: "e"
              chunk 1 text run 4 at (256.69,233.00) startOffset 3 endOffset 4 width 6.67: " "
              chunk 1 text run 5 at (267.35,233.00) startOffset 4 endOffset 5 width 14.66: "T"
              chunk 1 text run 6 at (281.36,233.00) startOffset 5 endOffset 6 width 13.35: "e"
              chunk 1 text run 7 at (294.03,233.00) startOffset 6 endOffset 7 width 12.00: "x"
              chunk 1 text run 8 at (303.37,233.00) startOffset 7 endOffset 8 width 6.67: "t"
              chunk 1 text run 9 at (310.03,233.00) startOffset 8 endOffset 9 width 6.67: " "
              chunk 1 text run 10 at (320.04,233.00) startOffset 9 endOffset 10 width 13.35: "o"
              chunk 1 text run 11 at (333.39,233.00) startOffset 10 endOffset 11 width 13.35: "n"
              chunk 1 text run 12 at (343.40,233.00) startOffset 11 endOffset 12 width 6.67: " "
              chunk 1 text run 13 at (353.40,233.00) startOffset 12 endOffset 13 width 13.35: "p"
              chunk 1 text run 14 at (366.75,233.00) startOffset 13 endOffset 14 width 13.35: "a"
              chunk 1 text run 15 at (376.76,233.00) startOffset 14 endOffset 15 width 6.67: "t"
              chunk 1 text run 16 at (386.77,233.00) startOffset 15 endOffset 16 width 13.35: "h"
          LayoutSVGInlineText {#text} at (0,0) size 0x0
        LayoutSVGRect {rect} at (117,249) size 262x43 [stroke={[type=SOLID] [color=#000000]}] [x=118.00] [y=250.00] [width=260.00] [height=41.00]
        LayoutSVGText {text} at (120,249) size 234x22 contains 1 chunk(s)
          LayoutSVGInlineText {#text} at (0,0) size 234x22
            chunk 1 text run 1 at (120.00,267.00) startOffset 0 endOffset 30 width 233.30: "'startOffset' attribute of the"
        LayoutSVGText {text} at (120,269) size 164x22 contains 1 chunk(s)
          LayoutSVGInlineText {#text} at (0,0) size 164x22
            chunk 1 text run 1 at (120.00,287.00) startOffset 0 endOffset 19 width 163.28: "'textPath' element."
    LayoutSVGText {text} at (10,304) size 264x45 contains 1 chunk(s)
      LayoutSVGInlineText {#text} at (0,0) size 264x45
        chunk 1 text run 1 at (10.00,340.00) startOffset 0 endOffset 16 width 263.34: "$Revision: 1.9 $"
    LayoutSVGRect {rect} at (0,0) size 480x360 [stroke={[type=SOLID] [color=#000000]}] [x=1.00] [y=1.00] [width=478.00] [height=358.00]
