{
  "bounds": [800, 2016],
  "children": [
    {
      "bounds": [800, 2016],
      "contentsOpaque": true,
      "drawsContent": true,
      "repaintRects": [
        [100, 700, 100, 100],
        [8, 8, 100, 100]
      ]
    }
  ]
}

