layer at (0,0) size 800x600
  LayoutView at (0,0) size 800x600
layer at (0,0) size 800x600
  LayoutBlockFlow {HTML} at (0,0) size 800x600
    LayoutBlockFlow {BODY} at (8,8) size 784x584
      LayoutBlockFlow {P} at (0,0) size 784x18
        LayoutText {#text} at (0,0) size 741x18
          text run at (0,0) width 158: "Here's the original case. "
          text run at (157,0) width 584: "All of the cells have images that fill to their given widths except the ones marked \"Empty\"."
      LayoutTable {TABLE} at (0,34) size 566x60 [bgcolor=#00FFFF]
        LayoutTableSection {TBODY} at (0,0) size 566x60
          LayoutTableRow {TR} at (0,0) size 566x40
            LayoutTableCell {TD} at (0,0) size 222x40 [bgcolor=#FF0000] [r=0 c=0 rs=1 cs=1]
              LayoutBlockFlow {IMG} at (0,0) size 222x40
            LayoutTableCell {TD} at (222,0) size 145x40 [bgcolor=#666600] [r=0 c=1 rs=1 cs=1]
              LayoutBlockFlow {IMG} at (0,0) size 145x40
            LayoutTableCell {TD} at (367,11) size 199x18 [bgcolor=#009999] [r=0 c=2 rs=1 cs=1]
              LayoutText {#text} at (0,0) size 43x18
                text run at (0,0) width 43: "Empty"
          LayoutTableRow {TR} at (0,40) size 566x20
            LayoutTableCell {TD} at (0,40) size 367x20 [bgcolor=#0000FF] [r=1 c=0 rs=1 cs=2]
              LayoutBlockFlow {IMG} at (0,0) size 367x20
            LayoutTableCell {TD} at (367,41) size 199x18 [bgcolor=#990099] [r=1 c=2 rs=1 cs=1]
              LayoutText {#text} at (0,0) size 43x18
                text run at (0,0) width 43: "Empty"
      LayoutBlockFlow {P} at (0,110) size 784x18
        LayoutText {#text} at (0,0) size 386x18
          text run at (0,0) width 386: "If we fill either empty out with text, the problem goes away."
      LayoutTable {TABLE} at (0,144) size 566x74 [bgcolor=#00FFFF]
        LayoutTableSection {TBODY} at (0,0) size 566x74
          LayoutTableRow {TR} at (0,0) size 566x54
            LayoutTableCell {TD} at (0,7) size 222x40 [bgcolor=#FF0000] [r=0 c=0 rs=1 cs=1]
              LayoutBlockFlow {IMG} at (0,0) size 222x40
            LayoutTableCell {TD} at (222,7) size 145x40 [bgcolor=#666600] [r=0 c=1 rs=1 cs=1]
              LayoutBlockFlow {IMG} at (0,0) size 145x40
            LayoutTableCell {TD} at (367,0) size 199x54 [bgcolor=#009999] [r=0 c=2 rs=1 cs=1]
              LayoutText {#text} at (0,0) size 197x54
                text run at (0,0) width 197: "Empty - lots of text here now -"
                text run at (0,18) width 188: "and more and more and more"
                text run at (0,36) width 54: "text in it"
          LayoutTableRow {TR} at (0,54) size 566x20
            LayoutTableCell {TD} at (0,54) size 367x20 [bgcolor=#0000FF] [r=1 c=0 rs=1 cs=2]
              LayoutBlockFlow {IMG} at (0,0) size 367x20
            LayoutTableCell {TD} at (367,55) size 199x18 [bgcolor=#990099] [r=1 c=2 rs=1 cs=1]
              LayoutText {#text} at (0,0) size 43x18
                text run at (0,0) width 43: "Empty"
      LayoutBlockFlow {P} at (0,234) size 784x18
        LayoutText {#text} at (0,0) size 4x18
          text run at (0,0) width 4: " "
      LayoutTable {TABLE} at (0,268) size 566x76 [bgcolor=#00FFFF]
        LayoutTableSection {TBODY} at (0,0) size 566x76
          LayoutTableRow {TR} at (0,0) size 566x40
            LayoutTableCell {TD} at (0,0) size 222x40 [bgcolor=#FF0000] [r=0 c=0 rs=1 cs=1]
              LayoutBlockFlow {IMG} at (0,0) size 222x40
            LayoutTableCell {TD} at (222,0) size 145x40 [bgcolor=#666600] [r=0 c=1 rs=1 cs=1]
              LayoutBlockFlow {IMG} at (0,0) size 145x40
            LayoutTableCell {TD} at (367,11) size 199x18 [bgcolor=#009999] [r=0 c=2 rs=1 cs=1]
              LayoutText {#text} at (0,0) size 43x18
                text run at (0,0) width 43: "Empty"
          LayoutTableRow {TR} at (0,40) size 566x36
            LayoutTableCell {TD} at (0,48) size 367x20 [bgcolor=#0000FF] [r=1 c=0 rs=1 cs=2]
              LayoutBlockFlow {IMG} at (0,0) size 367x20
            LayoutTableCell {TD} at (367,40) size 199x36 [bgcolor=#990099] [r=1 c=2 rs=1 cs=1]
              LayoutText {#text} at (0,0) size 186x36
                text run at (0,0) width 186: "Empty - this has lots and lots"
                text run at (0,18) width 125: "and lots of text in it"
      LayoutBlockFlow {P} at (0,360) size 784x18
        LayoutText {#text} at (0,0) size 473x18
          text run at (0,0) width 473: "Taking away either the cellpadding=0 or cellspacing=0 fixes the problem."
      LayoutTable {TABLE} at (0,394) size 566x70 [bgcolor=#00FFFF]
        LayoutTableSection {TBODY} at (0,0) size 566x70
          LayoutTableRow {TR} at (0,2) size 566x42
            LayoutTableCell {TD} at (2,2) size 224x42 [bgcolor=#FF0000] [r=0 c=0 rs=1 cs=1]
              LayoutBlockFlow {IMG} at (1,1) size 222x40
            LayoutTableCell {TD} at (228,2) size 147x42 [bgcolor=#666600] [r=0 c=1 rs=1 cs=1]
              LayoutBlockFlow {IMG} at (1,1) size 145x40
            LayoutTableCell {TD} at (377,13) size 187x20 [bgcolor=#009999] [r=0 c=2 rs=1 cs=1]
              LayoutText {#text} at (1,1) size 43x18
                text run at (1,1) width 43: "Empty"
          LayoutTableRow {TR} at (0,46) size 566x22
            LayoutTableCell {TD} at (2,46) size 373x22 [bgcolor=#0000FF] [r=1 c=0 rs=1 cs=2]
              LayoutBlockFlow {IMG} at (1,1) size 367x20
            LayoutTableCell {TD} at (377,47) size 187x20 [bgcolor=#990099] [r=1 c=2 rs=1 cs=1]
              LayoutText {#text} at (1,1) size 43x18
                text run at (1,1) width 43: "Empty"
      LayoutBlockFlow {P} at (0,480) size 784x18
        LayoutText {#text} at (0,0) size 324x18
          text run at (0,0) width 324: "As does removing the explicit width on the table..."
      LayoutTable {TABLE} at (0,514) size 566x60 [bgcolor=#00FFFF]
        LayoutTableSection {TBODY} at (0,0) size 566x60
          LayoutTableRow {TR} at (0,0) size 566x40
            LayoutTableCell {TD} at (0,0) size 222x40 [bgcolor=#FF0000] [r=0 c=0 rs=1 cs=1]
              LayoutBlockFlow {IMG} at (0,0) size 222x40
            LayoutTableCell {TD} at (222,0) size 145x40 [bgcolor=#666600] [r=0 c=1 rs=1 cs=1]
              LayoutBlockFlow {IMG} at (0,0) size 145x40
            LayoutTableCell {TD} at (367,11) size 199x18 [bgcolor=#009999] [r=0 c=2 rs=1 cs=1]
              LayoutText {#text} at (0,0) size 43x18
                text run at (0,0) width 43: "Empty"
          LayoutTableRow {TR} at (0,40) size 566x20
            LayoutTableCell {TD} at (0,40) size 367x20 [bgcolor=#0000FF] [r=1 c=0 rs=1 cs=2]
              LayoutBlockFlow {IMG} at (0,0) size 367x20
            LayoutTableCell {TD} at (367,41) size 199x18 [bgcolor=#990099] [r=1 c=2 rs=1 cs=1]
              LayoutText {#text} at (0,0) size 43x18
                text run at (0,0) width 43: "Empty"
layer at (8,42) size 222x40 clip at (9,43) size 220x38
  LayoutBlockFlow {DIV} at (0,0) size 222x40 [border: (1px solid #C0C0C0)]
layer at (10,44) size 218x18
  LayoutBlockFlow {DIV} at (2,2) size 218x18
    LayoutText {#text} at (0,0) size 108x18
      text run at (0,0) width 108: "Hometown AOL"
layer at (230,42) size 145x40 clip at (231,43) size 143x38
  LayoutBlockFlow {DIV} at (0,0) size 145x40 [border: (1px solid #C0C0C0)]
layer at (232,44) size 141x18
  LayoutBlockFlow {DIV} at (2,2) size 141x18
    LayoutText {#text} at (0,0) size 108x18
      text run at (0,0) width 108: "Quick Start Link"
layer at (8,82) size 367x20 clip at (9,83) size 365x18 scrollHeight 20
  LayoutBlockFlow {DIV} at (0,0) size 367x20 [border: (1px solid #C0C0C0)]
layer at (10,84) size 363x18 backgroundClip at (10,84) size 363x17 clip at (10,84) size 363x17 outlineClip at (9,83) size 365x18
  LayoutBlockFlow {DIV} at (2,2) size 363x18
    LayoutText {#text} at (0,0) size 62x18
      text run at (0,0) width 62: "Welcome"
layer at (8,159) size 222x40 clip at (9,160) size 220x38
  LayoutBlockFlow {DIV} at (0,0) size 222x40 [border: (1px solid #C0C0C0)]
layer at (10,161) size 218x18
  LayoutBlockFlow {DIV} at (2,2) size 218x18
    LayoutText {#text} at (0,0) size 108x18
      text run at (0,0) width 108: "Hometown AOL"
layer at (230,159) size 145x40 clip at (231,160) size 143x38
  LayoutBlockFlow {DIV} at (0,0) size 145x40 [border: (1px solid #C0C0C0)]
layer at (232,161) size 141x18
  LayoutBlockFlow {DIV} at (2,2) size 141x18
    LayoutText {#text} at (0,0) size 108x18
      text run at (0,0) width 108: "Quick Start Link"
layer at (8,206) size 367x20 clip at (9,207) size 365x18 scrollHeight 20
  LayoutBlockFlow {DIV} at (0,0) size 367x20 [border: (1px solid #C0C0C0)]
layer at (10,208) size 363x18 backgroundClip at (10,208) size 363x17 clip at (10,208) size 363x17 outlineClip at (9,207) size 365x18
  LayoutBlockFlow {DIV} at (2,2) size 363x18
    LayoutText {#text} at (0,0) size 62x18
      text run at (0,0) width 62: "Welcome"
layer at (8,276) size 222x40 clip at (9,277) size 220x38
  LayoutBlockFlow {DIV} at (0,0) size 222x40 [border: (1px solid #C0C0C0)]
layer at (10,278) size 218x18
  LayoutBlockFlow {DIV} at (2,2) size 218x18
    LayoutText {#text} at (0,0) size 108x18
      text run at (0,0) width 108: "Hometown AOL"
layer at (230,276) size 145x40 clip at (231,277) size 143x38
  LayoutBlockFlow {DIV} at (0,0) size 145x40 [border: (1px solid #C0C0C0)]
layer at (232,278) size 141x18
  LayoutBlockFlow {DIV} at (2,2) size 141x18
    LayoutText {#text} at (0,0) size 108x18
      text run at (0,0) width 108: "Quick Start Link"
layer at (8,324) size 367x20 clip at (9,325) size 365x18 scrollHeight 20
  LayoutBlockFlow {DIV} at (0,0) size 367x20 [border: (1px solid #C0C0C0)]
layer at (10,326) size 363x18 backgroundClip at (10,326) size 363x17 clip at (10,326) size 363x17 outlineClip at (9,325) size 365x18
  LayoutBlockFlow {DIV} at (2,2) size 363x18
    LayoutText {#text} at (0,0) size 62x18
      text run at (0,0) width 62: "Welcome"
layer at (11,405) size 222x40 clip at (12,406) size 220x38
  LayoutBlockFlow {DIV} at (0,0) size 222x40 [border: (1px solid #C0C0C0)]
layer at (13,407) size 218x18
  LayoutBlockFlow {DIV} at (2,2) size 218x18
    LayoutText {#text} at (0,0) size 108x18
      text run at (0,0) width 108: "Hometown AOL"
layer at (237,405) size 145x40 clip at (238,406) size 143x38
  LayoutBlockFlow {DIV} at (0,0) size 145x40 [border: (1px solid #C0C0C0)]
layer at (239,407) size 141x18
  LayoutBlockFlow {DIV} at (2,2) size 141x18
    LayoutText {#text} at (0,0) size 108x18
      text run at (0,0) width 108: "Quick Start Link"
layer at (11,449) size 367x20 clip at (12,450) size 365x18 scrollHeight 20
  LayoutBlockFlow {DIV} at (0,0) size 367x20 [border: (1px solid #C0C0C0)]
layer at (13,451) size 363x18 backgroundClip at (13,451) size 363x17 clip at (13,451) size 363x17 outlineClip at (12,450) size 365x18
  LayoutBlockFlow {DIV} at (2,2) size 363x18
    LayoutText {#text} at (0,0) size 62x18
      text run at (0,0) width 62: "Welcome"
layer at (8,522) size 222x40 clip at (9,523) size 220x38
  LayoutBlockFlow {DIV} at (0,0) size 222x40 [border: (1px solid #C0C0C0)]
layer at (10,524) size 218x18
  LayoutBlockFlow {DIV} at (2,2) size 218x18
    LayoutText {#text} at (0,0) size 108x18
      text run at (0,0) width 108: "Hometown AOL"
layer at (230,522) size 145x40 clip at (231,523) size 143x38
  LayoutBlockFlow {DIV} at (0,0) size 145x40 [border: (1px solid #C0C0C0)]
layer at (232,524) size 141x18
  LayoutBlockFlow {DIV} at (2,2) size 141x18
    LayoutText {#text} at (0,0) size 108x18
      text run at (0,0) width 108: "Quick Start Link"
layer at (8,562) size 367x20 clip at (9,563) size 365x18 scrollHeight 20
  LayoutBlockFlow {DIV} at (0,0) size 367x20 [border: (1px solid #C0C0C0)]
layer at (10,564) size 363x18 backgroundClip at (10,564) size 363x17 clip at (10,564) size 363x17 outlineClip at (9,563) size 365x18
  LayoutBlockFlow {DIV} at (2,2) size 363x18
    LayoutText {#text} at (0,0) size 62x18
      text run at (0,0) width 62: "Welcome"
