layer at (0,0) size 800x600
  LayoutView at (0,0) size 800x600
layer at (0,0) size 450x500
  LayoutSVGRoot {svg} at (0,0) size 448x498
    LayoutSVGHiddenContainer {defs} at (0,0) size 0x0
      LayoutSVGResourceFilter {filter} [id="blur"] [filterUnits=userSpaceOnUse] [primitiveUnits=userSpaceOnUse]
        [feGaussianBlur stdDeviation="0.04, 0.04"]
          [SourceGraphic]
      LayoutSVGPath {path} at (14,0) size 122x45 [transform={m=((0.00,0.00)(0.00,0.00)) t=(0.00,0.00)}] [stroke={[type=SOLID] [color=#008000] [stroke width=5.00]}] [data="M 100 200 C 200 100 300 0 400 100 C 500 200 600 300 700 200 C 800 100 900 100 900 100"]
    LayoutSVGContainer {g} at (0,36) size 385x428
      LayoutSVGText {text} at (2,0) size 5x2 contains 1 chunk(s)
        LayoutSVGInlineText {#text} at (0,0) size 5x1
          chunk 1 (middle anchor) text run 1 at (2.09,1.00) startOffset 0 endOffset 41 width 4.82: "Small font size test (viewBox=\"0 0 9 10\")"
      LayoutSVGContainer {g} at (0,72) size 385x392
        LayoutSVGText {text} at (0,1) size 8x2 contains 1 chunk(s)
          LayoutSVGInlineText {#text} at (0,0) size 3x1
            chunk 1 text run 1 at (0.90,2.00) startOffset 0 endOffset 16 width 2.04: "Text can change "
          LayoutSVGTSpan {tspan} at (0,0) size 2x1
            LayoutSVGInlineText {#text} at (2,0) size 2x1
              chunk 1 text run 1 at (2.94,2.00) startOffset 0 endOffset 5 width 1.08: "size,"
          LayoutSVGInlineText {#text} at (3,0) size 1x1
            chunk 1 text run 1 at (4.02,2.00) startOffset 0 endOffset 1 width 0.08: " "
          LayoutSVGTSpan {tspan} at (0,0) size 2x1
            LayoutSVGInlineText {#text} at (3,0) size 2x1
              chunk 1 text run 1 at (4.10,2.00) startOffset 0 endOffset 9 width 1.45: "typeface,"
          LayoutSVGInlineText {#text} at (4,0) size 1x1
            chunk 1 text run 1 at (5.56,2.00) startOffset 0 endOffset 1 width 0.08: " "
          LayoutSVGTSpan {tspan} at (0,0) size 2x1
            LayoutSVGInlineText {#text} at (4,0) size 1x1
              chunk 1 text run 1 at (5.64,2.00) startOffset 0 endOffset 6 width 0.64: "color,"
          LayoutSVGInlineText {#text} at (5,0) size 1x1
            chunk 1 text run 1 at (6.28,2.00) startOffset 0 endOffset 1 width 0.08: " "
            chunk 1 text run 1 at (6.36,2.00) startOffset 0 endOffset 3 width 0.32: "or "
          LayoutSVGTSpan {tspan} at (0,0) size 2x1
            LayoutSVGInlineText {#text} at (5,0) size 1x1
              chunk 1 text run 1 at (6.68,2.00) startOffset 0 endOffset 5 width 0.56: "style"
          LayoutSVGInlineText {#text} at (0,0) size 0x0
        LayoutSVGText {text} at (0,2) size 5x1 contains 1 chunk(s)
          LayoutSVGInlineText {#text} at (0,0) size 4x1
            chunk 1 text run 1 at (0.90,2.40) startOffset 0 endOffset 29 width 3.26: "within a single text element."
        LayoutSVGText {text} at (0,2) size 8x2 contains 1 chunk(s)
          LayoutSVGInlineText {#text} at (0,0) size 3x1
            chunk 1 text run 1 at (0.90,3.20) startOffset 0 endOffset 25 width 2.80: "Styling features include "
          LayoutSVGTSpan {tspan} at (0,0) size 2x1
            LayoutSVGInlineText {#text} at (2,0) size 1x1
              chunk 1 text run 1 at (3.70,3.20) startOffset 0 endOffset 7 width 0.94: "weight,"
          LayoutSVGInlineText {#text} at (3,0) size 1x1
            chunk 1 text run 1 at (4.64,3.20) startOffset 0 endOffset 1 width 0.08: " "
          LayoutSVGTSpan {tspan} at (0,0) size 2x1
            LayoutSVGInlineText {#text} at (3,0) size 2x1
              chunk 1 text run 1 at (4.72,3.20) startOffset 0 endOffset 8 width 1.02: "posture,"
          LayoutSVGInlineText {#text} at (4,0) size 1x1
            chunk 1 text run 1 at (5.74,3.20) startOffset 0 endOffset 5 width 0.58: " and "
          LayoutSVGTSpan {tspan} at (0,0) size 2x1
            LayoutSVGInlineText {#text} at (5,0) size 2x1
              chunk 1 text run 1 at (6.32,3.20) startOffset 0 endOffset 9 width 1.10: "typeface."
          LayoutSVGInlineText {#text} at (0,0) size 0x0
        LayoutSVGRect {rect} at (0,125) size 298x150 [fill={[type=SOLID] [color=#1E90FF]}] [x=0.90] [y=3.50] [width=4.05] [height=1.00]
        LayoutSVGText {text} at (0,3) size 7x2 contains 1 chunk(s)
          LayoutSVGInlineText {#text} at (0,0) size 4x1
            chunk 1 text run 1 at (0.90,4.00) startOffset 0 endOffset 28 width 3.24: "Graphics attributes such as "
          LayoutSVGTSpan {tspan} at (0,0) size 2x1
            LayoutSVGInlineText {#text} at (3,0) size 1x1
              chunk 1 text run 1 at (4.14,4.00) startOffset 0 endOffset 7 width 0.84: "opacity"
          LayoutSVGInlineText {#text} at (4,0) size 2x1
            chunk 1 text run 1 at (4.98,4.00) startOffset 0 endOffset 16 width 1.84: " can be applied."
        LayoutSVGText {text} at (0,4) size 7x2 contains 1 chunk(s)
          LayoutSVGInlineText {#text} at (0,0) size 4x1
            chunk 1 text run 1 at (0.90,5.00) startOffset 0 endOffset 30 width 3.42: "\"text decoration\" can include "
          LayoutSVGTSpan {tspan} at (0,0) size 2x1
            LayoutSVGInlineText {#text} at (3,0) size 2x1
              chunk 1 text run 1 at (4.32,5.00) startOffset 0 endOffset 10 width 1.12: "underline,"
          LayoutSVGInlineText {#text} at (4,0) size 1x1
            chunk 1 text run 1 at (5.44,5.00) startOffset 0 endOffset 1 width 0.08: " "
          LayoutSVGTSpan {tspan} at (0,0) size 2x1
            LayoutSVGInlineText {#text} at (4,0) size 1x1
              chunk 1 text run 1 at (5.52,5.00) startOffset 0 endOffset 9 width 0.98: "overline,"
          LayoutSVGInlineText {#text} at (5,0) size 1x1
            chunk 1 text run 1 at (6.50,5.00) startOffset 0 endOffset 4 width 0.50: " and"
        LayoutSVGText {text} at (0,5) size 7x1 contains 1 chunk(s)
          LayoutSVGTSpan {tspan} at (0,0) size 2x1
            LayoutSVGInlineText {#text} at (0,0) size 2x1
              chunk 1 text run 1 at (0.90,5.40) startOffset 0 endOffset 15 width 1.68: "strikethrough. "
          LayoutSVGInlineText {#text} at (0,0) size 0x0
          LayoutSVGTSpan {tspan} at (0,0) size 2x1
            LayoutSVGInlineText {#text} at (1,0) size 1x1
              chunk 1 text run 1 at (2.68,5.40) startOffset 0 endOffset 5 width 0.46: "Super"
          LayoutSVGInlineText {#text} at (2,0) size 1x1
            chunk 1 text run 1 at (3.14,5.40) startOffset 0 endOffset 5 width 0.58: " and "
          LayoutSVGTSpan {tspan} at (0,0) size 2x1
            LayoutSVGInlineText {#text} at (2,0) size 1x1
              chunk 1 text run 1 at (3.72,5.40) startOffset 0 endOffset 3 width 0.28: "sub"
          LayoutSVGInlineText {#text} at (3,0) size 3x1
            chunk 1 text run 1 at (4.00,5.40) startOffset 0 endOffset 23 width 2.48: " scripts are available."
        LayoutSVGText {text} at (0,5) size 8x2 contains 1 chunk(s)
          LayoutSVGInlineText {#text} at (0,0) size 1x1
            chunk 1 text run 1 at (0.90,6.20) startOffset 0 endOffset 8 width 1.00: "Various "
          LayoutSVGTSpan {tspan} at (0,0) size 1x1
            LayoutSVGInlineText {#text} at (1,0) size 1x1
              chunk 1 text run 1 at (1.90,6.20) startOffset 0 endOffset 8 width 0.84: "outline "
          LayoutSVGInlineText {#text} at (1,0) size 1x1
            chunk 1 text run 1 at (2.74,6.20) startOffset 0 endOffset 8 width 0.80: "styles, "
          LayoutSVGTSpan {tspan} at (0,0) size 2x1
            LayoutSVGInlineText {#text} at (2,0) size 2x1
              chunk 1 text run 1 at (3.54,6.20) startOffset 0 endOffset 12 width 1.14: "fill colors "
          LayoutSVGInlineText {#text} at (3,0) size 1x1
            chunk 1 text run 1 at (4.68,6.20) startOffset 0 endOffset 4 width 0.50: "and "
          LayoutSVGTSpan {tspan} at (0,0) size 2x1
            LayoutSVGInlineText {#text} at (4,0) size 2x1
              chunk 1 text run 1 at (5.18,6.20) startOffset 0 endOffset 12 width 1.42: "thicknesses "
          LayoutSVGInlineText {#text} at (5,0) size 1x1
            chunk 1 text run 1 at (6.60,6.20) startOffset 0 endOffset 6 width 0.78: "can be"
        LayoutSVGText {text} at (0,6) size 8x1 contains 1 chunk(s)
          LayoutSVGInlineText {#text} at (0,0) size 5x1
            chunk 1 text run 1 at (0.90,6.60) startOffset 0 endOffset 36 width 4.12: "used, and the outline stroke can be "
          LayoutSVGTSpan {tspan} at (0,0) size 2x1
            LayoutSVGInlineText {#text} at (4,0) size 1x1
              chunk 1 text run 1 at (5.02,6.60) startOffset 0 endOffset 7 width 0.94: "rounded"
          LayoutSVGInlineText {#text} at (5,0) size 1x1
            chunk 1 text run 1 at (5.96,6.60) startOffset 0 endOffset 1 width 0.08: " "
            chunk 1 text run 1 at (6.04,6.60) startOffset 0 endOffset 3 width 0.32: "or "
          LayoutSVGTSpan {tspan} at (0,0) size 2x1
            LayoutSVGInlineText {#text} at (5,0) size 1x1
              chunk 1 text run 1 at (6.36,6.60) startOffset 0 endOffset 8 width 0.96: "mitered."
          LayoutSVGInlineText {#text} at (0,0) size 0x0
        LayoutSVGText {text} at (0,7) size 7x1 contains 1 chunk(s)
          LayoutSVGInlineText {#text} at (0,0) size 6x1
            chunk 1 text run 1 at (0.90,7.50) startOffset 0 endOffset 48 width 5.60: "Text elements also can be filtered, transformed "
          LayoutSVGTSpan {tspan} at (0,0) size 3x1
            LayoutSVGInlineText {#text} at (0,0) size 3x1
              chunk 1 text run 1 at (0.90,7.90) startOffset 0 endOffset 21 width 2.50: "and placed on a path."
        LayoutSVGContainer {g} at (0,364) size 281x100 [transform={m=((1.00,0.00)(0.00,1.00)) t=(1.50,9.00)}]
          LayoutSVGText {text} at (0,-1) size 3x2 contains 1 chunk(s)
            [filter="blur"] LayoutSVGResourceFilter {filter} at (0,-1.60) size 4x2
            LayoutSVGInlineText {#text} at (0,0) size 3x1
              [filter="blur"] LayoutSVGResourceFilter {filter} at (0,-1.60) size 4x2
              chunk 1 text run 1 at (0.00,0.00) startOffset 0 endOffset 6 width 2.58: "Shadow"
          LayoutSVGText {text} at (0,-1) size 3x2 contains 1 chunk(s)
            LayoutSVGInlineText {#text} at (0,0) size 3x1
              chunk 1 text run 1 at (0.00,0.00) startOffset 0 endOffset 6 width 2.58: "Shadow"
        LayoutSVGContainer {g} at (256,395) size 129x50 [transform={m=((1.00,0.00)(0.00,1.00)) t=(5.00,8.00)}]
          LayoutSVGContainer {use} at (264,400) size 121x45
            LayoutSVGPath {path} at (264,400) size 121x45 [transform={m=((0.00,0.00)(0.00,0.00)) t=(0.00,0.00)}] [stroke={[type=SOLID] [color=#008000] [stroke width=5.00]}] [data="M 100 200 C 200 100 300 0 400 100 C 500 200 600 300 700 200 C 800 100 900 100 900 100"]
          LayoutSVGText {text} at (0,-1) size 3x2 contains 1 chunk(s)
            LayoutSVGTextPath {textPath} at (0,0) size 3x1
              LayoutSVGInlineText {#text} at (0,0) size 2x1
                chunk 1 text run 1 at (0.38,0.52) startOffset 0 endOffset 1 width 0.16: "S"
                chunk 1 text run 2 at (0.56,0.36) startOffset 1 endOffset 2 width 0.22: "m"
                chunk 1 text run 3 at (0.73,0.24) startOffset 2 endOffset 3 width 0.14: "a"
                chunk 1 text run 4 at (0.82,0.20) startOffset 3 endOffset 4 width 0.06: "l"
                chunk 1 text run 5 at (0.88,0.18) startOffset 4 endOffset 5 width 0.06: "l"
                chunk 1 text run 6 at (0.95,0.18) startOffset 5 endOffset 6 width 0.08: " "
                chunk 1 text run 7 at (1.02,0.19) startOffset 6 endOffset 7 width 0.08: "t"
                chunk 1 text run 8 at (1.13,0.24) startOffset 7 endOffset 8 width 0.14: "e"
                chunk 1 text run 9 at (1.26,0.36) startOffset 8 endOffset 9 width 0.14: "x"
                chunk 1 text run 10 at (1.36,0.46) startOffset 9 endOffset 10 width 0.08: "t"
                chunk 1 text run 11 at (1.44,0.53) startOffset 10 endOffset 11 width 0.08: " "
              LayoutSVGTSpan {tspan} at (0,0) size 1x1
                LayoutSVGInlineText {#text} at (1,0) size 1x1
                  chunk 1 text run 1 at (1.54,0.61) startOffset 0 endOffset 1 width 0.14: "o"
                  chunk 1 text run 2 at (1.68,0.69) startOffset 1 endOffset 2 width 0.14: "n"
              LayoutSVGTSpan {tspan} at (0,0) size 2x1
                LayoutSVGInlineText {#text} at (1,0) size 1x1
                  chunk 1 text run 1 at (1.78,0.72) startOffset 0 endOffset 1 width 0.08: " "
                  chunk 1 text run 2 at (1.88,0.72) startOffset 1 endOffset 2 width 0.14: "a"
                  chunk 1 text run 3 at (1.99,0.68) startOffset 2 endOffset 3 width 0.08: " "
                  chunk 1 text run 4 at (2.12,0.58) startOffset 3 endOffset 4 width 0.18: "P"
                  chunk 1 text run 5 at (2.33,0.42) startOffset 4 endOffset 5 width 0.14: "a"
                  chunk 1 text run 6 at (2.46,0.36) startOffset 5 endOffset 6 width 0.08: "t"
                  chunk 1 text run 7 at (2.57,0.32) startOffset 6 endOffset 7 width 0.14: "h"
            LayoutSVGInlineText {#text} at (0,0) size 0x0
    LayoutSVGContainer {use} at (0,0) size 448x498 [transform={m=((0.02,0.00)(0.00,0.02)) t=(0.00,0.00)}]
      LayoutSVGContainer {g} at (0,0) size 448x498
        LayoutSVGRect {rect} at (0,0) size 448x498 [stroke={[type=SOLID] [color=#000000]}] [x=1.00] [y=1.00] [width=446.00] [height=496.00]
        LayoutSVGContainer {g} at (418,466) size 28x30 [transform={m=((1.00,0.00)(0.00,1.00)) t=(418.00,467.00)}]
          LayoutSVGViewportContainer {svg} at (418,466) size 28x30
            LayoutSVGPath {path} at (418,468) size 14x19 [fill={[type=SOLID] [color=#6666FF]}] [data="M 172 44 C 137 60 31 135 11 199 C 3 226 33 247 55 232 C 14 306 -1 332 0 356 C 0 370 13 398 44 383 C 52 379 79 358 96 342 C 110 341 120 331 138 314 C 155 328 174 324 190 307 C 212 309 272 229 234 199 C 231 175 204 162 181 181 C 175 179 168 180 163 182 C 185 147 206 100 212 77 C 219 47 188 36 172 44 Z"]
            LayoutSVGPath {path} at (432,466) size 14x17 [fill={[type=SOLID] [color=#FF0000]}] [data="M 400 0 C 382 3 351 31 351 31 C 322 54 308 89 323 126 C 310 140 294 170 294 193 C 294 221 314 245 344 222 C 351 230 365 238 381 227 C 376 256 384 275 407 276 C 408 286 420 307 443 293 C 459 283 501 254 522 237 C 547 214 547 143 504 148 C 537 89 501 52 477 64 C 467 68 431 89 425 94 C 424 87 420 82 414 80 C 436 45 436 -5 401 0 Z"]
            LayoutSVGPath {path} at (425,484) size 16x12 [fill={[type=SOLID] [color=#33CC33]}] [data="M 275 353 C 229 365 187 396 161 444 C 152 460 167 481 186 477 C 172 501 146 544 171 558 C 199 574 223 550 231 543 C 249 564 281 553 312 526 C 353 540 380 524 415 473 C 423 461 445 430 445 408 C 445 392 430 378 410 387 C 409 375 401 349 357 368 C 347 362 326 363 303 385 C 308 375 300 347 275 353 Z"]
