{
  "bounds": [800, 600],
  "children": [
    {
      "bounds": [800, 600],
      "contentsOpaque": true,
      "drawsContent": true,
      "repaintRects": [
        [293, 144, 15, 219],
        [293, 108, 15, 285],
        [293, 108, 15, 285],
        [293, 108, 15, 72],
        [293, 108, 15, 36],
        [108, 108, 200, 300],
        [93, 108, 200, 285],
        [93, 108, 200, 285],
        [93, 108, 15, 85],
        [44, 393, 219, 15],
        [8, 393, 285, 15],
        [8, 393, 285, 15],
        [8, 393, 72, 15],
        [8, 393, 36, 15],
        [8, 212, 784, 200],
        [8, 208, 300, 200],
        [8, 193, 285, 200],
        [8, 193, 285, 200],
        [8, 193, 85, 15],
        [8, 108, 784, 304],
        [8, 108, 285, 285],
        [0, 220, 800, 200]
      ],
      "paintInvalidationClients": [
        "InlineBox",
        "RootInlineBox",
        "HorizontalScrollbar",
        "LayoutIFrame IFRAME id='iframe'",
        "HorizontalScrollbar",
        "LayoutIFrame IFRAME id='iframe'",
        "HorizontalScrollbar",
        "LayoutIFrame IFRAME id='iframe'",
        "HorizontalScrollbar",
        "LayoutIFrame IFRAME id='iframe'",
        "HorizontalScrollbar",
        "LayoutIFrame IFRAME id='iframe'",
        "HorizontalScrollbar",
        "LayoutIFrame IFRAME id='iframe'",
        "VerticalScrollbar",
        "LayoutIFrame IFRAME id='iframe'",
        "VerticalScrollbar",
        "LayoutIFrame IFRAME id='iframe'",
        "VerticalScrollbar",
        "LayoutIFrame IFRAME id='iframe'",
        "VerticalScrollbar",
        "LayoutIFrame IFRAME id='iframe'",
        "VerticalScrollbar",
        "LayoutIFrame IFRAME id='iframe'",
        "VerticalScrollbar",
        "LayoutIFrame IFRAME id='iframe'",
        "LayoutBlockFlow HTML",
        "LayoutBlockFlow (anonymous)",
        "LayoutBlockFlow (anonymous)",
        "LayoutIFrame IFRAME id='iframe'",
        "LayoutView #document",
        "LayoutView #document",
        "LayoutBlockFlow HTML"
      ]
    }
  ]
}

