layer at (0,0) size 800x600
  LayoutView at (0,0) size 800x600
layer at (0,0) size 800x600
  LayoutSVGRoot {svg} at (40,89) size 192x88
    LayoutSVGHiddenContainer {defs} at (0,0) size 0x0
      LayoutSVGResourceClipper {clipPath} [id="clip"] [clipPathUnits=userSpaceOnUse]
        LayoutSVGText {text} at (40,89) size 192x88 contains 1 chunk(s)
          LayoutSVGTSpan {tspan} at (0,0) size 192x88
            LayoutSVGInlineText {#text} at (0,0) size 192x88
              chunk 1 text run 1 at (40.00,160.00) startOffset 0 endOffset 4 width 191.13: "CLIP"
    LayoutSVGRect {rect} at (40,89) size 192x88 [fill={[type=SOLID] [color=#008000]}] [x=40.00] [y=40.00] [width=300.00] [height=300.00]
      [clipPath="clip"] LayoutSVGResourceClipper {clipPath} at (40,89) size 191.14x88
