{
  "bounds": [800, 600],
  "children": [
    {
      "bounds": [800, 600],
      "contentsOpaque": true,
      "drawsContent": true,
      "repaintRects": [
        [387, 123, 385, 391],
        [387, 23, 385, 554]
      ]
    }
  ]
}

