{
  "bounds": [800, 600],
  "children": [
    {
      "bounds": [800, 600],
      "contentsOpaque": true,
      "drawsContent": true,
      "repaintRects": [
        [48, 94, 100, 100],
        [48, 94, 100, 50],
        [31, 180, 7, 18],
        [31, 148, 761, 50],
        [31, 130, 7, 18],
        [31, 94, 761, 104]
      ]
    }
  ]
}

