{
  "bounds": [2008, 2096],
  "children": [
    {
      "bounds": [2008, 2096],
      "contentsOpaque": true,
      "drawsContent": true,
      "repaintRects": [
        [8, 52, 784, 20],
        [8, 52, 769, 20],
        [8, 16, 2000, 2072],
        [8, 16, 784, 20],
        [8, 16, 769, 20],
        [0, 0, 800, 600],
        [0, 0, 785, 585],
        [0, 0, 785, 585]
      ],
      "paintInvalidationClients": [
        "HorizontalScrollbar",
        "HorizontalScrollbar",
        "VerticalScrollbar",
        "RootInlineBox",
        "InlineTextBox 'You should see both vertical and horizontal scrollbars.'",
        "RootInlineBox",
        "InlineTextBox 'This is the test for '",
        "InlineTextBox 'Bug 36461 - No vertical scrollbar after the CSS class change'",
        "InlineTextBox '.'",
        "LayoutView #document",
        "LayoutView #document",
        "LayoutBlockFlow BODY",
        "LayoutBlockFlow P",
        "LayoutBlockFlow P"
      ]
    }
  ]
}

