{
  "bounds": [800, 600],
  "children": [
    {
      "bounds": [800, 600],
      "contentsOpaque": true,
      "drawsContent": true,
      "repaintRects": [
        [0, 120, 800, 100]
      ],
      "paintInvalidationClients": [
        "LayoutBlockFlow HTML"
      ]
    }
  ]
}

