{
  "bounds": [800, 600],
  "children": [
    {
      "bounds": [800, 600],
      "contentsOpaque": true,
      "drawsContent": true,
      "repaintRects": [
        [232, 11, 9, 16],
        [187, 11, 169, 16],
        [55, 11, 9, 16],
        [10, 11, 169, 16]
      ],
      "paintInvalidationClients": [
        "InlineTextBox ''",
        "RootInlineBox",
        "InlineTextBox ''",
        "RootInlineBox",
        "LayoutBlockFlow DIV id='inner-editor'",
        "LayoutText #text",
        "InlineTextBox 'PASSED'",
        "LayoutBlockFlow DIV id='inner-editor'",
        "LayoutText #text",
        "InlineTextBox 'PASSED'"
      ]
    }
  ]
}

