{
  "bounds": [785, 848],
  "children": [
    {
      "bounds": [785, 848],
      "contentsOpaque": true,
      "drawsContent": true,
      "repaintRects": [
        [13, 1001, 16, 17],
        [13, 941, 16, 17],
        [13, 881, 16, 17],
        [13, 821, 16, 17],
        [13, 801, 16, 17],
        [13, 761, 8, 17],
        [13, 741, 16, 17],
        [13, 701, 8, 17],
        [13, 681, 16, 17],
        [13, 641, 8, 17],
        [13, 621, 16, 17],
        [13, 581, 8, 17],
        [13, 561, 8, 17],
        [13, 521, 8, 17],
        [13, 501, 8, 17],
        [13, 461, 8, 17],
        [13, 441, 8, 17],
        [13, 401, 8, 17],
        [13, 381, 8, 17],
        [13, 341, 8, 17],
        [13, 321, 8, 17],
        [13, 261, 8, 17],
        [13, 201, 8, 17],
        [13, 141, 8, 17],
        [8, 980, 769, 60],
        [8, 980, 769, 60],
        [8, 920, 769, 60],
        [8, 920, 769, 60],
        [8, 860, 769, 60],
        [8, 860, 769, 60],
        [8, 800, 769, 60],
        [8, 800, 769, 60],
        [8, 780, 769, 60],
        [8, 780, 769, 60],
        [8, 740, 769, 60],
        [8, 740, 769, 60],
        [8, 720, 769, 60],
        [8, 720, 769, 60],
        [8, 680, 769, 60],
        [8, 680, 769, 60],
        [8, 660, 769, 60],
        [8, 660, 769, 60],
        [8, 620, 769, 60],
        [8, 620, 769, 60],
        [8, 600, 769, 60],
        [8, 600, 769, 60],
        [8, 560, 769, 60],
        [8, 560, 769, 60],
        [8, 540, 769, 60],
        [8, 540, 769, 60],
        [8, 500, 769, 60],
        [8, 500, 769, 60],
        [8, 480, 769, 60],
        [8, 480, 769, 60],
        [8, 440, 769, 60],
        [8, 440, 769, 60],
        [8, 420, 769, 60],
        [8, 420, 769, 60],
        [8, 380, 769, 60],
        [8, 380, 769, 60],
        [8, 360, 769, 60],
        [8, 360, 769, 60],
        [8, 320, 769, 60],
        [8, 320, 769, 60],
        [8, 300, 769, 60],
        [8, 300, 769, 60],
        [8, 240, 769, 60],
        [8, 240, 769, 60],
        [8, 180, 769, 60],
        [8, 180, 769, 60],
        [8, 120, 769, 200],
        [8, 120, 769, 60],
        [8, 120, 769, 60],
        [8, 115, 769, 205],
        [0, 0, 785, 1048],
        [0, 0, 785, 848]
      ],
      "paintInvalidationClients": [
        "LayoutBlockFlow HTML",
        "LayoutTableCell TD id='resizeMe'",
        "LayoutTableRow TR",
        "LayoutTableCell TD",
        "LayoutText #text",
        "InlineTextBox '2'",
        "LayoutTableRow TR",
        "LayoutTableCell TD",
        "LayoutText #text",
        "InlineTextBox '3'",
        "LayoutTableRow TR",
        "LayoutTableCell TD",
        "LayoutText #text",
        "InlineTextBox '4'",
        "LayoutTableRow TR",
        "LayoutTableCell TD",
        "LayoutText #text",
        "InlineTextBox '5'",
        "LayoutTableRow TR",
        "LayoutTableCell TD",
        "LayoutText #text",
        "InlineTextBox '6'",
        "LayoutTableRow TR",
        "LayoutTableCell TD",
        "LayoutText #text",
        "InlineTextBox '7'",
        "LayoutTableRow TR",
        "LayoutTableCell TD",
        "LayoutText #text",
        "InlineTextBox '8'",
        "LayoutTableRow TR",
        "LayoutTableCell TD",
        "LayoutText #text",
        "InlineTextBox '9'",
        "LayoutTableRow TR",
        "LayoutTableCell TD",
        "LayoutText #text",
        "InlineTextBox '10'",
        "LayoutTableRow TR",
        "LayoutTableCell TD",
        "LayoutText #text",
        "InlineTextBox '11'",
        "LayoutTableRow TR",
        "LayoutTableCell TD",
        "LayoutText #text",
        "InlineTextBox '12'",
        "LayoutTableRow TR",
        "LayoutTableCell TD",
        "LayoutText #text",
        "InlineTextBox '13'"
      ]
    }
  ]
}

