{
  "bounds": [800, 600],
  "children": [
    {
      "bounds": [800, 600],
      "contentsOpaque": true,
      "drawsContent": true,
      "repaintRects": [
        [11, 71, 117, 13],
        [8, 68, 784, 19],
        [8, 68, 123, 19],
        [8, 54, 11, 11],
        [0, 76, 800, 19]
      ],
      "paintInvalidationClients": [
        "LayoutBlockFlow HTML",
        "LayoutDetailsMarker DIV id='details-marker'",
        "LayoutBlockFlow DIV id='details-content'",
        "LayoutTextControl INPUT",
        "LayoutBlockFlow DIV id='inner-editor'",
        "LayoutText #text",
        "LayoutText #text"
      ]
    }
  ]
}

