{
  "bounds": [800, 600],
  "children": [
    {
      "bounds": [800, 600],
      "contentsOpaque": true,
      "drawsContent": true,
      "repaintRects": [
        [378, 138, 70, 30],
        [368, 80, 52, 108],
        [305, 170, 40, 18],
        [301, 404, 67, 18],
        [178, 350, 146, 18],
        [65, 386, 303, 36],
        [65, 350, 146, 18],
        [14, 404, 355, 36],
        [14, 386, 354, 36],
        [14, 353, 48, 64],
        [14, 335, 48, 64],
        [14, 242, 406, 126],
        [14, 224, 406, 126],
        [14, 188, 406, 72],
        [14, 188, 40, 18],
        [14, 170, 406, 72],
        [8, 116, 418, 450]
      ],
      "paintInvalidationClients": [
        "InlineTextBox 'body tucked away,\n'",
        "InlineTextBox 'comfortably enough, under her'",
        "RootInlineBox",
        "InlineTextBox 'arm, with its legs hanging down,\n'",
        "InlineTextBox 'but generally, just as'",
        "RootInlineBox",
        "InlineTextBox 'she had got its neck nicely straightened\n'",
        "InlineTextBox 'out, and was'",
        "RootInlineBox",
        "InlineTextBox 'going to give the hedgehog a blow with its head, it'",
        "RootInlineBox",
        "InlineTextBox 'would'",
        "InlineTextBox ' twist itself round and look up in her face, with\n'",
        "InlineTextBox 'such a'",
        "RootInlineBox",
        "InlineTextBox 'puzzled expression that she could not help bursting out'",
        "RootInlineBox",
        "InlineTextBox 'laughing: and when she had got its head down, and was going'",
        "RootInlineBox",
        "InlineTextBox 'to\n'",
        "InlineTextBox 'begin again, it was very provoking to find that the hedgehog'",
        "RootInlineBox",
        "InlineTextBox 'had\n'",
        "InlineTextBox 'unrolled itself, and was in the act of crawling away:'",
        "RootInlineBox",
        "InlineTextBox 'besides all\n'",
        "InlineTextBox 'this, there was generally a ridge or furrow in the'",
        "RootInlineBox",
        "InlineTextBox 'way wherever\n'",
        "InlineTextBox 'she wanted to send the hedgehog to, and, as the'",
        "RootInlineBox",
        "InlineTextBox 'doubled-up\n'",
        "InlineTextBox 'soldiers were always getting up and walking off to'",
        "RootInlineBox",
        "InlineTextBox 'other parts of\n'",
        "InlineTextBox 'the ground, Alice soon came to the conclusion'",
        "RootInlineBox",
        "InlineTextBox 'that it was a very\n'",
        "InlineTextBox 'difficult game indeed.\n'",
        "RootInlineBox",
        "InlineTextBox 'The players all played at once without waiting'",
        "RootInlineBox",
        "InlineTextBox 'for turns,\n'",
        "InlineTextBox 'quarrelling all the while, and fighting'",
        "RootInlineBox",
        "InlineTextBox 'for the hedgehogs; and in\n'",
        "InlineTextBox 'a very short time '",
        "InlineTextBox 'the'",
        "RootInlineBox",
        "InlineTextBox 'Queen'",
        "InlineTextBox ' was in a furious passion, and went\n'",
        "InlineTextBox 'stamping'",
        "RootInlineBox",
        "InlineTextBox 'about, and shouting \u2018Off with his head!\u2019 or \u2018Off with'",
        "RootInlineBox",
        "InlineTextBox 'her head!\u2019 about once in a minute.\n'",
        "RootInlineBox",
        "InlineTextBox 'Alice began to feel very uneasy: to be sure, she had not as\n'",
        "InlineTextBox 'yet'",
        "RootInlineBox",
        "InlineTextBox 'had any dispute with the Queen, but she knew that it might'",
        "RootInlineBox",
        "InlineTextBox 'happen any minute, \u2018and then,\u2019 thought she, \u2018what would'",
        "RootInlineBox",
        "InlineTextBox 'become of\n'",
        "InlineTextBox 'me? They\u2019re dreadfully fond of beheading people'",
        "RootInlineBox",
        "InlineTextBox 'here; the great\n'",
        "InlineTextBox 'wonder is, that there\u2018s any one left alive!\u2019'",
        "RootInlineBox",
        "LayoutBlockFlow (floating) DIV id='pinkFloat'",
        "LayoutBlockFlow P",
        "LayoutText #text",
        "InlineTextBox 'The chief difficulty Alice found at first was in'",
        "InlineTextBox 'managing her\n'",
        "InlineTextBox 'flamingo: she succeeded in getting its'",
        "InlineTextBox 'body tucked away,\n'",
        "InlineTextBox 'comfortably enough, under her'",
        "InlineTextBox 'arm, with its legs hanging down,\n'",
        "InlineTextBox 'but generally, just as'",
        "InlineTextBox 'she had got its neck nicely straightened\n'",
        "InlineTextBox 'out, and was going to'",
        "InlineTextBox 'give the hedgehog a blow with its head, it\n'",
        "LayoutText #text",
        "InlineTextBox 'would'",
        "LayoutText #text",
        "InlineTextBox ' twist itself'",
        "InlineTextBox 'round and look up in her face, with\n'",
        "InlineTextBox 'such a puzzled expression'",
        "InlineTextBox 'that she could not help bursting out\n'",
        "InlineTextBox 'laughing: and when she'",
        "InlineTextBox 'had got its head down, and was going to\n'",
        "LayoutText #text",
        "InlineTextBox 'begin again, it was'",
        "InlineTextBox 'very provoking to find that the hedgehog had\n'",
        "InlineTextBox 'unrolled itself,'",
        "InlineTextBox 'and was in the act of crawling away: besides all\n'",
        "InlineTextBox 'this, there was'",
        "InlineTextBox 'generally a ridge or furrow in the way wherever\n'",
        "InlineTextBox 'she wanted to'",
        "InlineTextBox 'send the hedgehog to, and, as the doubled-up\n'",
        "InlineTextBox 'soldiers were'",
        "InlineTextBox 'always getting up and walking off to other parts of\n'",
        "InlineTextBox 'the ground,'",
        "InlineTextBox 'Alice soon came to the conclusion that it was a very'",
        "LayoutBlockFlow (floating) SPAN id='blueFloat'",
        "LayoutText #text",
        "InlineTextBox 'difficult game indeed.\n'",
        "LayoutText #text",
        "InlineTextBox 'for turns,\n'",
        "InlineTextBox 'quarrelling all the while, and fighting'",
        "InlineTextBox 'for the hedgehogs; and in\n'",
        "InlineTextBox 'a very short time '",
        "LayoutText #text",
        "InlineTextBox 'the Queen'"
      ]
    }
  ]
}

