layer at (0,0) size 480x360
  LayoutView at (0,0) size 480x360
layer at (0,0) size 480x360
  LayoutSVGRoot {svg} at (0,0) size 480x360
    LayoutSVGHiddenContainer {defs} at (0,0) size 0x0
    LayoutSVGContainer {g} at (41,38) size 278x246
      LayoutSVGContainer {g} at (70,93) size 143x132
        LayoutSVGText {text} at (70,93) size 143x22 contains 1 chunk(s)
          LayoutSVGInlineText {#text} at (0,0) size 143x22
            chunk 1 text run 1 at (70.00,110.00) startOffset 0 endOffset 18 width 143.00: "Text from 0s to 3s"
        LayoutSVGText {text} at (100,168) size 77x22 contains 1 chunk(s)
          LayoutSVGInlineText {#text} at (0,0) size 77x22
            chunk 1 text run 1 at (100.00,185.00) startOffset 0 endOffset 10 width 77.00: "Text at 6s"
        LayoutSVGText {text} at (100,203) size 77x22 contains 1 chunk(s)
          LayoutSVGInlineText {#text} at (0,0) size 77x22
            chunk 1 text run 1 at (100.00,220.00) startOffset 0 endOffset 10 width 77.00: "Text at 9s"
      LayoutSVGContainer {g} at (41,38) size 278x246
        LayoutSVGText {text} at (0,-17) size 74x22 contains 1 chunk(s)
          LayoutSVGInlineText {#text} at (0,0) size 74x22
            chunk 1 text run 1 at (0.00,0.00) startOffset 0 endOffset 11 width 74.00: "It's alive!"
        LayoutSVGText {text} at (0,-36) size 144x46 contains 1 chunk(s)
          LayoutSVGInlineText {#text} at (0,0) size 144x46
            chunk 1 text run 1 at (0.00,0.00) startOffset 0 endOffset 11 width 144.00: "It's alive!"
        LayoutSVGText {text} at (100,216) size 219x68 contains 1 chunk(s)
          LayoutSVGInlineText {#text} at (0,0) size 219x68
            chunk 1 text run 1 at (100.00,270.00) startOffset 0 endOffset 11 width 219.00: "It's alive!"
      LayoutSVGContainer {g} at (41,38) size 76x57 [transform={m=((1.00,0.00)(0.00,1.00)) t=(50.00,90.00)}]
        LayoutSVGText {text} at (0,-17) size 74x22 contains 1 chunk(s)
          LayoutSVGInlineText {#text} at (0,0) size 74x22
            chunk 1 text run 1 at (0.00,0.00) startOffset 0 endOffset 11 width 74.00: "It's alive!"
          LayoutSVGInlineText {#text} at (0,0) size 0x0
          LayoutSVGInlineText {#text} at (0,0) size 0x0
          LayoutSVGInlineText {#text} at (0,0) size 0x0
    LayoutSVGText {text} at (10,304) size 261x46 contains 1 chunk(s)
      LayoutSVGInlineText {#text} at (0,0) size 261x46
        chunk 1 text run 1 at (10.00,340.00) startOffset 0 endOffset 16 width 261.00: "$Revision: 1.7 $"
    LayoutSVGRect {rect} at (0,0) size 480x360 [stroke={[type=SOLID] [color=#000000]}] [x=1.00] [y=1.00] [width=478.00] [height=358.00]
