layer at (0,0) size 800x600
  LayoutView at (0,0) size 800x600
layer at (0,0) size 800x600
  LayoutBlockFlow {HTML} at (0,0) size 800x600
    LayoutBlockFlow {BODY} at (8,8) size 784x584
layer at (8,8) size 404x304
  LayoutIFrame (positioned) {IFRAME} at (8,8) size 404x304 [border: (2px inset #EEEEEE)]
    layer at (0,0) size 400x300 clip at (0,0) size 385x285 scrollWidth 1008 scrollHeight 1016
      LayoutView at (0,0) size 400x300
    layer at (0,0) size 385x1016 backgroundClip at (0,0) size 385x285 clip at (0,0) size 385x285 outlineClip at (0,0) size 385x285
      LayoutBlockFlow {HTML} at (0,0) size 385x1016
        LayoutBlockFlow {BODY} at (8,8) size 369x1000
          LayoutBlockFlow {DIV} at (0,0) size 1000x1000 [bgcolor=#008000]
