layer at (0,0) size 800x600
  LayoutView at (0,0) size 800x600
layer at (0,0) size 800x160
  LayoutBlockFlow {HTML} at (0,0) size 800x160
    LayoutBlockFlow {BODY} at (8,16) size 784x128
      LayoutBlockFlow {P} at (0,0) size 784x20
        LayoutText {#text} at (0,0) size 316x19
          text run at (0,0) width 316: "The following three paragraphs should look identical:"
      LayoutBlockFlow {P} at (0,36) size 784x20
        LayoutText {#text} at (0,0) size 143x19
          text run at (0,0) width 143: "This is a test paragraph."
      LayoutBlockFlow {P} at (0,72) size 784x20
        LayoutInline (anonymous) at (0,0) size 29x19
          LayoutText at (0,0) size 29x19
            text run at (0,0) width 29: "This "
        LayoutText {#text} at (29,0) size 114x19
          text run at (29,0) width 114: "is a test paragraph."
      LayoutBlockFlow {P} at (0,108) size 784x20
        LayoutInline (anonymous) at (0,0) size 29x19
          LayoutText at (0,0) size 29x19
            text run at (0,0) width 29: "This "
        LayoutText {#text} at (29,0) size 114x19
          text run at (29,0) width 114: "is a test paragraph."
