
SVG SMIL:
PASS: amplitude from [1] to [6] was [1] at 0
PASS: amplitude from [1] to [6] was [2] at 0.2
PASS: amplitude from [1] to [6] was [4] at 0.6
PASS: amplitude from [1] to [6] was [6] at 1

Web Animations API:
PASS: amplitude from [1] to [6] was [-1] at -0.4
PASS: amplitude from [1] to [6] was [1] at 0
PASS: amplitude from [1] to [6] was [2] at 0.2
PASS: amplitude from [1] to [6] was [4] at 0.6
PASS: amplitude from [1] to [6] was [6] at 1
PASS: amplitude from [1] to [6] was [8] at 1.4

