
SVG SMIL:
PASS: patternTransform from [translate(10 20)] to [translate(30 60)] was [translate(10 20)] at 0
PASS: patternTransform from [translate(10 20)] to [translate(30 60)] was [translate(14,28)] at 0.2
PASS: patternTransform from [translate(10 20)] to [translate(30 60)] was [translate(22,44)] at 0.6
PASS: patternTransform from [translate(10 20)] to [translate(30 60)] was [translate(30 60)] at 1
PASS: patternTransform from [scale(10 20)] to [scale(30 60)] was [scale(10 20)] at 0
PASS: patternTransform from [scale(10 20)] to [scale(30 60)] was [scale(14 28)] at 0.2
PASS: patternTransform from [scale(10 20)] to [scale(30 60)] was [scale(22 44)] at 0.6
PASS: patternTransform from [scale(10 20)] to [scale(30 60)] was [scale(30 60)] at 1
PASS: patternTransform from [rotate(10 20 30)] to [rotate(40 80 160)] was [rotate(10 20 30)] at 0
PASS: patternTransform from [rotate(10 20 30)] to [rotate(40 80 160)] was [rotate(16 32 56)] at 0.2
PASS: patternTransform from [rotate(10 20 30)] to [rotate(40 80 160)] was [rotate(28 56 108)] at 0.6
PASS: patternTransform from [rotate(10 20 30)] to [rotate(40 80 160)] was [rotate(40 80 160)] at 1
PASS: patternTransform from [skewX(10)] to [skewX(20)] was [skewX(10)] at 0
PASS: patternTransform from [skewX(10)] to [skewX(20)] was [skewX(12)] at 0.2
PASS: patternTransform from [skewX(10)] to [skewX(20)] was [skewX(16)] at 0.6
PASS: patternTransform from [skewX(10)] to [skewX(20)] was [skewX(20)] at 1
PASS: patternTransform from [skewY(10)] to [skewY(20)] was [skewY(10)] at 0
PASS: patternTransform from [skewY(10)] to [skewY(20)] was [skewY(12)] at 0.2
PASS: patternTransform from [skewY(10)] to [skewY(20)] was [skewY(16)] at 0.6
PASS: patternTransform from [skewY(10)] to [skewY(20)] was [skewY(20)] at 1

Web Animations API:
PASS: patternTransform from [translate(10 20)] to [translate(30 60)] was [translate(2,4)] at -0.4
PASS: patternTransform from [translate(10 20)] to [translate(30 60)] was [translate(10 20)] at 0
PASS: patternTransform from [translate(10 20)] to [translate(30 60)] was [translate(14,28)] at 0.2
PASS: patternTransform from [translate(10 20)] to [translate(30 60)] was [translate(22,44)] at 0.6
PASS: patternTransform from [translate(10 20)] to [translate(30 60)] was [translate(30 60)] at 1
PASS: patternTransform from [translate(10 20)] to [translate(30 60)] was [translate(38,76)] at 1.4
PASS: patternTransform from [scale(10 20)] to [scale(30 60)] was [scale(2 4)] at -0.4
PASS: patternTransform from [scale(10 20)] to [scale(30 60)] was [scale(10 20)] at 0
PASS: patternTransform from [scale(10 20)] to [scale(30 60)] was [scale(14 28)] at 0.2
PASS: patternTransform from [scale(10 20)] to [scale(30 60)] was [scale(22 44)] at 0.6
PASS: patternTransform from [scale(10 20)] to [scale(30 60)] was [scale(30 60)] at 1
PASS: patternTransform from [scale(10 20)] to [scale(30 60)] was [scale(38 76)] at 1.4
PASS: patternTransform from [rotate(10 20 30)] to [rotate(40 80 160)] was [rotate(-2 -4 -22)] at -0.4
PASS: patternTransform from [rotate(10 20 30)] to [rotate(40 80 160)] was [rotate(10 20 30)] at 0
PASS: patternTransform from [rotate(10 20 30)] to [rotate(40 80 160)] was [rotate(16 32 56)] at 0.2
PASS: patternTransform from [rotate(10 20 30)] to [rotate(40 80 160)] was [rotate(28 56 108)] at 0.6
PASS: patternTransform from [rotate(10 20 30)] to [rotate(40 80 160)] was [rotate(40 80 160)] at 1
PASS: patternTransform from [rotate(10 20 30)] to [rotate(40 80 160)] was [rotate(52 104 212)] at 1.4
PASS: patternTransform from [skewX(10)] to [skewX(20)] was [skewX(6)] at -0.4
PASS: patternTransform from [skewX(10)] to [skewX(20)] was [skewX(10)] at 0
PASS: patternTransform from [skewX(10)] to [skewX(20)] was [skewX(12)] at 0.2
PASS: patternTransform from [skewX(10)] to [skewX(20)] was [skewX(16)] at 0.6
PASS: patternTransform from [skewX(10)] to [skewX(20)] was [skewX(20)] at 1
PASS: patternTransform from [skewX(10)] to [skewX(20)] was [skewX(24)] at 1.4
PASS: patternTransform from [skewY(10)] to [skewY(20)] was [skewY(6)] at -0.4
PASS: patternTransform from [skewY(10)] to [skewY(20)] was [skewY(10)] at 0
PASS: patternTransform from [skewY(10)] to [skewY(20)] was [skewY(12)] at 0.2
PASS: patternTransform from [skewY(10)] to [skewY(20)] was [skewY(16)] at 0.6
PASS: patternTransform from [skewY(10)] to [skewY(20)] was [skewY(20)] at 1
PASS: patternTransform from [skewY(10)] to [skewY(20)] was [skewY(24)] at 1.4

