{
  "bounds": [800, 600],
  "children": [
    {
      "bounds": [800, 600],
      "contentsOpaque": true,
      "drawsContent": true,
      "repaintRects": [
        [282, 36, 46, 17]
      ],
      "children": [
        {
          "position": [0, 54],
          "bounds": [800, 500],
          "drawsContent": true,
          "repaintRects": [
            [270, 0, 46, 17],
            [225, 0, 46, 17],
            [90, 0, 46, 17],
            [52, 18, 46, 17],
            [20, 160, 202, 72],
            [10, 127, 138, 12],
            [10, 72, 228, 17]
          ],
          "children": [
            {
              "bounds": [785, 485],
              "children": [
                {
                  "bounds": [785, 1340],
                  "drawsContent": true,
                  "repaintRects": [
                    [270, 0, 46, 17],
                    [225, 0, 46, 17],
                    [90, 0, 46, 17],
                    [52, 18, 46, 17],
                    [20, 160, 202, 72],
                    [10, 127, 138, 12],
                    [10, 72, 228, 17]
                  ],
                  "children": [
                    {

                    }
                  ]
                }
              ]
            },
            {
              "children": [
                {
                  "position": [0, 485],
                  "bounds": [785, 15],
                  "drawsContent": true
                },
                {
                  "position": [785, 0],
                  "bounds": [15, 485],
                  "drawsContent": true
                },
                {
                  "position": [785, 485],
                  "bounds": [15, 15],
                  "drawsContent": true
                }
              ]
            }
          ]
        }
      ]
    }
  ]
}

