{
  "bounds": [800, 600],
  "children": [
    {
      "bounds": [800, 600],
      "contentsOpaque": true,
      "drawsContent": true,
      "repaintRects": [
        [2, 314, 152, 152],
        [0, 314, 156, 152],
        [0, 312, 800, 156],
        [0, 312, 800, 156],
        [0, 312, 156, 156],
        [0, 312, 156, 156]
      ],
      "paintInvalidationClients": [
        "LayoutBlockFlow HTML",
        "LayoutBlockFlow DIV",
        "LayoutTable TABLE",
        "LayoutTableSection TBODY",
        "LayoutTableRow TR",
        "LayoutTableCell TD"
      ]
    }
  ]
}

