layer at (0,0) size 800x600
  LayoutView at (0,0) size 800x600
layer at (0,0) size 800x600
  LayoutBlockFlow {HTML} at (0,0) size 800x600
    LayoutBlockFlow {BODY} at (8,8) size 784x576
      LayoutBlockFlow {P} at (0,0) size 784x54
        LayoutText {#text} at (0,0) size 778x54
          text run at (0,0) width 759: "This layout test is designed to test that our fake italic mode is working correctly. The Ahem font, used below, does not"
          text run at (0,18) width 778: "include an italic variant. Thus, when we ask for italic Ahem, we should skew the glyphs ourselves, resulting in a series of"
          text run at (0,36) width 160: "italic black boxes below."
      LayoutBlockFlow {P} at (0,70) size 784x21
        LayoutText {#text} at (0,5) size 68x11
          text run at (0,5) width 68: "A A A A"
