{
  "bounds": [800, 600],
  "children": [
    {
      "bounds": [800, 600],
      "contentsOpaque": true,
      "drawsContent": true,
      "repaintRects": [
        [10, 61, 317, 379],
        [10, 61, 317, 379],
        [10, 61, 317, 379],
        [10, 61, 317, 379],
        [10, 61, 317, 379],
        [10, 61, 317, 379],
        [10, 61, 317, 379],
        [10, 61, 317, 379],
        [10, 61, 317, 379],
        [10, 61, 317, 379],
        [10, 61, 317, 379],
        [10, 60, 317, 380],
        [10, 60, 317, 380],
        [10, 60, 317, 380],
        [10, 60, 317, 380],
        [10, 60, 317, 380],
        [10, 60, 317, 380],
        [10, 60, 317, 380],
        [10, 60, 317, 380],
        [10, 60, 317, 380],
        [10, 60, 317, 380],
        [10, 60, 317, 380],
        [10, 60, 317, 380]
      ]
    }
  ]
}

