layer at (0,0) size 800x600
  LayoutView at (0,0) size 800x600
layer at (0,0) size 800x600
  LayoutSVGRoot {svg} at (0,0) size 346x460
    LayoutSVGContainer {g} at (0,0) size 346x460 [transform={m=((0.43,0.25)(-0.25,0.43)) t=(0.00,0.00)}]
      LayoutSVGResourcePattern {pattern} [id="pat1"] [patternUnits=objectBoundingBox] [patternContentUnits=userSpaceOnUse]
        LayoutSVGRect {rect} at (0,5) size 9x13 [fill={[type=SOLID] [color=#FF0000]}] [x=5.00] [y=5.00] [width=10.00] [height=10.00]
        LayoutSVGRect {rect} at (0,11) size 11x12 [fill={[type=SOLID] [color=#008000]}] [x=10.00] [y=10.00] [width=10.00] [height=10.00]
      LayoutSVGRect {rect} at (0,17) size 325x224 [stroke={[type=SOLID] [color=#000000]}] [fill={[type=PATTERN] [id="pat1"]}] [x=25.00] [y=10.00] [width=430.00] [height=60.00]
      LayoutSVGText {text} at (25,73) size 415x16 contains 1 chunk(s)
        LayoutSVGInlineText {#text} at (0,0) size 415x16
          chunk 1 text run 1 at (25.00,85.00) startOffset 0 endOffset 75 width 414.00: "Pattern created using red and green rectangles applied to fill of rectangle"
      LayoutSVGResourcePattern {pattern} [id="pat2"] [patternUnits=objectBoundingBox] [patternContentUnits=userSpaceOnUse]
        LayoutSVGRect {rect} at (0,0) size 8x12 [fill={[type=SOLID] [color=#FF0000]}] [x=0.00] [y=0.00] [width=10.00] [height=10.00]
        LayoutSVGRect {rect} at (3,4) size 12x12 [fill={[type=SOLID] [color=#008000]}] [x=10.00] [y=0.00] [width=10.00] [height=10.00]
        LayoutSVGRect {rect} at (0,7) size 4x12 [fill={[type=SOLID] [color=#0000FF]}] [x=0.00] [y=10.00] [width=10.00] [height=10.00]
        LayoutSVGRect {rect} at (0,11) size 11x12 [fill={[type=SOLID] [color=#FFFF00]}] [x=10.00] [y=10.00] [width=10.00] [height=10.00]
      LayoutSVGRect {rect} at (0,82) size 287x224 [stroke={[type=PATTERN] [id="pat2"] [stroke width=20.00]}] [x=35.00] [y=110.00] [width=410.00] [height=40.00]
      LayoutSVGText {text} at (25,163) size 320x16 contains 1 chunk(s)
        LayoutSVGInlineText {#text} at (0,0) size 320x16
          chunk 1 text run 1 at (25.00,175.00) startOffset 0 endOffset 59 width 319.20: "Pattern of 4 rectangles applied to a stroke of a rectangle."
      LayoutSVGResourcePattern {pattern} [id="pat3"] [patternUnits=objectBoundingBox] [patternContentUnits=userSpaceOnUse]
        LayoutSVGRect {rect} at (0,0) size 8x12 [fill={[type=SOLID] [color=#FF0000]}] [x=0.00] [y=0.00] [width=10.00] [height=10.00]
        LayoutSVGRect {rect} at (0,7) size 4x12 [fill={[type=SOLID] [color=#008000]}] [x=0.00] [y=10.00] [width=10.00] [height=10.00]
      LayoutSVGText {text} at (25,174) size 292x57 contains 1 chunk(s)
        LayoutSVGInlineText {#text} at (0,0) size 292x57
          chunk 1 text run 1 at (25.00,220.00) startOffset 0 endOffset 15 width 291.77: "Pattern on fill"
      LayoutSVGText {text} at (25,223) size 212x16 contains 1 chunk(s)
        LayoutSVGInlineText {#text} at (0,0) size 212x16
          chunk 1 text run 1 at (25.00,235.00) startOffset 0 endOffset 38 width 211.20: "Pattern consists of red and green rows"
      LayoutSVGResourcePattern {pattern} [id="pat4"] [patternUnits=objectBoundingBox] [patternContentUnits=userSpaceOnUse]
        LayoutSVGRect {rect} at (0,0) size 8x12 [fill={[type=SOLID] [color=#FF0000]}] [x=0.00] [y=0.00] [width=10.00] [height=10.00]
        LayoutSVGRect {rect} at (3,4) size 12x12 [fill={[type=SOLID] [color=#0000FF]}] [x=10.00] [y=0.00] [width=10.00] [height=10.00]
      LayoutSVGText {text} at (25,239) size 305x45 contains 1 chunk(s)
        LayoutSVGInlineText {#text} at (0,0) size 305x45
          chunk 1 text run 1 at (25.00,275.00) startOffset 0 endOffset 17 width 304.58: "Pattern on stroke"
      LayoutSVGText {text} at (25,278) size 227x16 contains 1 chunk(s)
        LayoutSVGInlineText {#text} at (0,0) size 227x16
          chunk 1 text run 1 at (25.00,290.00) startOffset 0 endOffset 40 width 226.80: "Pattern consists of red and blue columns"
      LayoutSVGText {text} at (10,304) size 264x45 contains 1 chunk(s)
        LayoutSVGInlineText {#text} at (0,0) size 264x45
          chunk 1 text run 1 at (10.00,340.00) startOffset 0 endOffset 16 width 263.31: "$Revision: 1.6 $"
      LayoutSVGRect {rect} at (0,0) size 346x460 [stroke={[type=SOLID] [color=#000000]}] [x=1.00] [y=1.00] [width=478.00] [height=358.00]
