layer at (0,0) size 800x600
  LayoutView at (0,0) size 800x600
layer at (0,0) size 800x600
  LayoutSVGRoot {svg} at (0,0) size 800x600
    LayoutSVGContainer {g} at (33,222) size 651x143
      LayoutSVGText {text} at (76,133) size 308x21 contains 1 chunk(s)
        LayoutSVGInlineText {#text} at (0,0) size 169x20
          chunk 1 (middle anchor) text run 1 at (76.80,150.00) startOffset 0 endOffset 20 width 168.47: "dirNone ubOverride \""
        LayoutSVGTSpan {tspan} at (0,0) size 128x20
          LayoutSVGInlineText {#text} at (168,0) size 127x20
            chunk 1 (middle anchor) text run 1 at (245.27,150.00) startOffset 0 endOffset 17 width 126.54 LTR override: "\x{646}\x{634}\x{627}\x{637} \x{627}\x{644}\x{62A}\x{62F}\x{648}\x{64A}\x{644}\x{60C} W3C"
        LayoutSVGInlineText {#text} at (295,0) size 12x20
          chunk 1 (middle anchor) text run 1 at (371.81,150.00) startOffset 0 endOffset 2 width 11.39: "\"!"
      LayoutSVGText {text} at (20,171) size 85x12 contains 1 chunk(s)
        LayoutSVGInlineText {#text} at (0,0) size 85x12
          chunk 1 text run 1 at (20.00,180.00) startOffset 0 endOffset 18 width 84.46: "Reference graphic:"
      LayoutSVGImage {image} at (100,300) size 584x65
    LayoutSVGContainer {g} at (16,557) size 73x12
      LayoutSVGText {text} at (10,334) size 44x8 contains 1 chunk(s)
        LayoutSVGInlineText {#text} at (0,0) size 44x7
          chunk 1 text run 1 at (10.00,340.00) startOffset 0 endOffset 16 width 43.03: "$Revision: 1.7 $"
    LayoutSVGRect {rect} at (0,0) size 800x600 [stroke={[type=SOLID] [color=#000000]}] [x=1.00] [y=1.00] [width=478.00] [height=358.00]
    LayoutSVGContainer {g} at (0,0) size 800x38
      LayoutSVGRect {rect} at (0,0) size 800x36 [stroke={[type=SOLID] [color=#000000]}] [fill={[type=SOLID] [color=#FF0000]}] [x=1.00] [y=1.00] [width=478.00] [height=20.00]
      LayoutSVGText {text} at (206,0) size 68x23 contains 1 chunk(s)
        LayoutSVGInlineText {#text} at (0,0) size 68x23
          chunk 1 (middle anchor) text run 1 at (206.12,18.00) startOffset 0 endOffset 5 width 67.76: "DRAFT"
